{
  "runtimeTarget": {
    "name": ".NETStandard,Version=v2.0/",
    "signature": ""
  },
  "compilationOptions": {},
  "targets": {
    ".NETStandard,Version=v2.0": {},
    ".NETStandard,Version=v2.0/": {
      "Microsoft.Coyote/1.0.5": {
        "dependencies": {
          "Microsoft.CodeAnalysis.FxCopAnalyzers": "2.9.1",
          "NETStandard.Library": "2.0.3",
          "StyleCop.Analyzers": "1.0.2",
          "System.Threading.Tasks.Extensions": "4.5.2"
        },
        "runtime": {
          "Microsoft.Coyote.dll": {}
        }
      },
      "Microsoft.CodeAnalysis.FxCopAnalyzers/2.9.1": {
        "dependencies": {
          "Microsoft.CodeAnalysis.VersionCheckAnalyzer": "2.9.1",
          "Microsoft.CodeQuality.Analyzers": "2.9.1",
          "Microsoft.NetCore.Analyzers": "2.9.1",
          "Microsoft.NetFramework.Analyzers": "2.9.1"
        }
      },
      "Microsoft.CodeAnalysis.VersionCheckAnalyzer/2.9.1": {},
      "Microsoft.CodeQuality.Analyzers/2.9.1": {},
      "Microsoft.NetCore.Analyzers/2.9.1": {},
      "Microsoft.NETCore.Platforms/1.1.0": {},
      "Microsoft.NetFramework.Analyzers/2.9.1": {},
      "NETStandard.Library/2.0.3": {
        "dependencies": {
          "Microsoft.NETCore.Platforms": "1.1.0"
        }
      },
      "StyleCop.Analyzers/1.0.2": {},
      "System.Runtime.CompilerServices.Unsafe/4.5.2": {
        "runtime": {
          "lib/netstandard2.0/System.Runtime.CompilerServices.Unsafe.dll": {
            "assemblyVersion": "4.0.4.1",
            "fileVersion": "4.0.0.0"
          }
        }
      },
      "System.Threading.Tasks.Extensions/4.5.2": {
        "dependencies": {
          "System.Runtime.CompilerServices.Unsafe": "4.5.2"
        },
        "runtime": {
          "lib/netstandard2.0/System.Threading.Tasks.Extensions.dll": {
            "assemblyVersion": "4.2.0.0",
            "fileVersion": "4.6.27129.4"
          }
        }
      }
    }
  },
  "libraries": {
    "Microsoft.Coyote/1.0.5": {
      "type": "project",
      "serviceable": false,
      "sha512": ""
    },
    "Microsoft.CodeAnalysis.FxCopAnalyzers/2.9.1": {
      "type": "package",
      "serviceable": true,
      "sha512": "sha512-tnJafOyqJbrEUcnQn3D57+vnzOuJPz7BijKMcBMY9pS8K757HD70F9gOsPpeKf/frx7BFmhV2tbrnEKieKqPrA==",
      "path": "microsoft.codeanalysis.fxcopanalyzers/2.9.1",
      "hashPath": "microsoft.codeanalysis.fxcopanalyzers.2.9.1.nupkg.sha512"
    },
    "Microsoft.CodeAnalysis.VersionCheckAnalyzer/2.9.1": {
      "type": "package",
      "serviceable": true,
      "sha512": "sha512-XS9PHyJbPEg+3Q/RsKVS2KtfBwRB3GWdemj0MuD5l1atbmXlWUDQuytalcdc1OH6COY9rleMLHwJM+ajtVx7Rg==",
      "path": "microsoft.codeanalysis.versioncheckanalyzer/2.9.1",
      "hashPath": "microsoft.codeanalysis.versioncheckanalyzer.2.9.1.nupkg.sha512"
    },
    "Microsoft.CodeQuality.Analyzers/2.9.1": {
      "type": "package",
      "serviceable": true,
      "sha512": "sha512-bv1El69gzisTdOtiDh5YM2GCssgObnm6gXcUyokJbMP2Ly3Ix4iC3KyH0jAiSYDnoFKRQ04T2ly4pc3rO2JtKg==",
      "path": "microsoft.codequality.analyzers/2.9.1",
      "hashPath": "microsoft.codequality.analyzers.2.9.1.nupkg.sha512"
    },
    "Microsoft.NetCore.Analyzers/2.9.1": {
      "type": "package",
      "serviceable": true,
      "sha512": "sha512-oQ1VZI5pS21Mtiw0D5dskpF+TXiBKhZkivKsxcizDjvQP9Y+ZE7JKpNXVSejjhvHCkU1g3FBz8ni9oCX1VxNmw==",
      "path": "microsoft.netcore.analyzers/2.9.1",
      "hashPath": "microsoft.netcore.analyzers.2.9.1.nupkg.sha512"
    },
    "Microsoft.NETCore.Platforms/1.1.0": {
      "type": "package",
      "serviceable": true,
      "sha512": "sha512-kz0PEW2lhqygehI/d6XsPCQzD7ff7gUJaVGPVETX611eadGsA3A877GdSlU0LRVMCTH/+P3o2iDTak+S08V2+A==",
      "path": "microsoft.netcore.platforms/1.1.0",
      "hashPath": "microsoft.netcore.platforms.1.1.0.nupkg.sha512"
    },
    "Microsoft.NetFramework.Analyzers/2.9.1": {
      "type": "package",
      "serviceable": true,
      "sha512": "sha512-A20Gda5IcyKhirHVqpvBFG2KzUP3usBSCkX5BIirEbr/pD6VQdlAz8NpY84zHOwdzG+pUkpc9V/hTNbOOFz93Q==",
      "path": "microsoft.netframework.analyzers/2.9.1",
      "hashPath": "microsoft.netframework.analyzers.2.9.1.nupkg.sha512"
    },
    "NETStandard.Library/2.0.3": {
      "type": "package",
      "serviceable": true,
      "sha512": "sha512-st47PosZSHrjECdjeIzZQbzivYBJFv6P2nv4cj2ypdI204DO+vZ7l5raGMiX4eXMJ53RfOIg+/s4DHVZ54Nu2A==",
      "path": "netstandard.library/2.0.3",
      "hashPath": "netstandard.library.2.0.3.nupkg.sha512"
    },
    "StyleCop.Analyzers/1.0.2": {
      "type": "package",
      "serviceable": true,
      "sha512": "sha512-3xD87lafnVhsSEtJKk50G7FGutvaXkFz4XrrLrxnk/DhZU42dnCGWUsvKuBv4mTS0XdIgTY88tLhxW/8Vi3Pow==",
      "path": "stylecop.analyzers/1.0.2",
      "hashPath": "stylecop.analyzers.1.0.2.nupkg.sha512"
    },
    "System.Runtime.CompilerServices.Unsafe/4.5.2": {
      "type": "package",
      "serviceable": true,
      "sha512": "sha512-wprSFgext8cwqymChhrBLu62LMg/1u92bU+VOwyfBimSPVFXtsNqEWC92Pf9ofzJFlk4IHmJA75EDJn1b2goAQ==",
      "path": "system.runtime.compilerservices.unsafe/4.5.2",
      "hashPath": "system.runtime.compilerservices.unsafe.4.5.2.nupkg.sha512"
    },
    "System.Threading.Tasks.Extensions/4.5.2": {
      "type": "package",
      "serviceable": true,
      "sha512": "sha512-BG/TNxDFv0svAzx8OiMXDlsHfGw623BZ8tCXw4YLhDFDvDhNUEV58jKYMGRnkbJNm7c3JNNJDiN7JBMzxRBR2w==",
      "path": "system.threading.tasks.extensions/4.5.2",
      "hashPath": "system.threading.tasks.extensions.4.5.2.nupkg.sha512"
    }
  }
}