{
  "runtimeTarget": {
    "name": ".NETCoreApp,Version=v3.1",
    "signature": ""
  },
  "compilationOptions": {},
  "targets": {
    ".NETCoreApp,Version=v3.1": {
      "Microsoft.Coyote.Production.Tests/1.0.5": {
        "dependencies": {
          "Microsoft.CodeAnalysis.FxCopAnalyzers": "2.9.1",
          "Microsoft.Coyote": "1.0.5",
          "Microsoft.Coyote.Tests.Common": "1.0.5",
          "Microsoft.NET.Test.Sdk": "15.7.2",
          "StyleCop.Analyzers": "1.0.2",
          "xunit": "2.4.1",
          "xunit.runner.visualstudio": "2.4.1"
        },
        "runtime": {
          "Microsoft.Coyote.Production.Tests.dll": {}
        }
      },
      "Microsoft.CodeAnalysis.FxCopAnalyzers/2.9.1": {
        "dependencies": {
          "Microsoft.CodeAnalysis.VersionCheckAnalyzer": "2.9.1",
          "Microsoft.CodeQuality.Analyzers": "2.9.1",
          "Microsoft.NetCore.Analyzers": "2.9.1",
          "Microsoft.NetFramework.Analyzers": "2.9.1"
        }
      },
      "Microsoft.CodeAnalysis.VersionCheckAnalyzer/2.9.1": {},
      "Microsoft.CodeCoverage/1.0.3": {
        "runtime": {
          "lib/netstandard1.0/Microsoft.VisualStudio.CodeCoverage.Shim.dll": {
            "assemblyVersion": "15.0.0.0",
            "fileVersion": "15.0.26228.0"
          }
        }
      },
      "Microsoft.CodeQuality.Analyzers/2.9.1": {},
      "Microsoft.CSharp/4.0.1": {
        "dependencies": {
          "System.Collections": "4.3.0",
          "System.Diagnostics.Debug": "4.3.0",
          "System.Dynamic.Runtime": "4.0.11",
          "System.Globalization": "4.3.0",
          "System.Linq": "4.3.0",
          "System.Linq.Expressions": "4.3.0",
          "System.ObjectModel": "4.3.0",
          "System.Reflection": "4.3.0",
          "System.Reflection.Extensions": "4.3.0",
          "System.Reflection.Primitives": "4.3.0",
          "System.Reflection.TypeExtensions": "4.3.0",
          "System.Resources.ResourceManager": "4.3.0",
          "System.Runtime": "4.3.0",
          "System.Runtime.Extensions": "4.3.0",
          "System.Runtime.InteropServices": "4.3.0",
          "System.Threading": "4.3.0"
        }
      },
      "Microsoft.DotNet.PlatformAbstractions/1.0.3": {
        "dependencies": {
          "System.AppContext": "4.3.0",
          "System.Collections": "4.3.0",
          "System.IO": "4.3.0",
          "System.IO.FileSystem": "4.3.0",
          "System.Reflection.TypeExtensions": "4.3.0",
          "System.Runtime.Extensions": "4.3.0",
          "System.Runtime.InteropServices": "4.3.0",
          "System.Runtime.InteropServices.RuntimeInformation": "4.3.0"
        },
        "runtime": {
          "lib/netstandard1.3/Microsoft.DotNet.PlatformAbstractions.dll": {
            "assemblyVersion": "1.0.1.0",
            "fileVersion": "1.0.1.0"
          }
        }
      },
      "Microsoft.Extensions.DependencyModel/1.0.3": {
        "dependencies": {
          "Microsoft.DotNet.PlatformAbstractions": "1.0.3",
          "Newtonsoft.Json": "9.0.1",
          "System.Diagnostics.Debug": "4.3.0",
          "System.Dynamic.Runtime": "4.0.11",
          "System.Linq": "4.3.0"
        },
        "runtime": {
          "lib/netstandard1.6/Microsoft.Extensions.DependencyModel.dll": {
            "assemblyVersion": "1.0.1.0",
            "fileVersion": "1.0.1.0"
          }
        }
      },
      "Microsoft.NET.Test.Sdk/15.7.2": {
        "dependencies": {
          "Microsoft.CodeCoverage": "1.0.3",
          "Microsoft.TestPlatform.TestHost": "15.7.2"
        }
      },
      "Microsoft.NetCore.Analyzers/2.9.1": {},
      "Microsoft.NETCore.Platforms/1.1.0": {},
      "Microsoft.NETCore.Targets/1.1.0": {},
      "Microsoft.NetFramework.Analyzers/2.9.1": {},
      "Microsoft.TestPlatform.ObjectModel/15.7.2": {
        "dependencies": {
          "NETStandard.Library": "1.6.1",
          "System.ComponentModel.EventBasedAsync": "4.0.11",
          "System.ComponentModel.TypeConverter": "4.1.0",
          "System.Diagnostics.Process": "4.1.0",
          "System.Diagnostics.TextWriterTraceListener": "4.0.0",
          "System.Diagnostics.TraceSource": "4.0.0",
          "System.Reflection.Metadata": "1.3.0",
          "System.Reflection.TypeExtensions": "4.3.0",
          "System.Runtime.InteropServices.RuntimeInformation": "4.3.0",
          "System.Runtime.Loader": "4.0.0",
          "System.Runtime.Serialization.Json": "4.0.2",
          "System.Runtime.Serialization.Primitives": "4.1.1",
          "System.Threading.Thread": "4.0.0",
          "System.Xml.XPath.XmlDocument": "4.0.1"
        },
        "runtime": {
          "lib/netstandard1.5/Microsoft.TestPlatform.CoreUtilities.dll": {
            "assemblyVersion": "15.0.0.0",
            "fileVersion": "15.0.0.0"
          },
          "lib/netstandard1.5/Microsoft.TestPlatform.PlatformAbstractions.dll": {
            "assemblyVersion": "15.0.0.0",
            "fileVersion": "15.0.0.0"
          },
          "lib/netstandard1.5/Microsoft.VisualStudio.TestPlatform.ObjectModel.dll": {
            "assemblyVersion": "15.0.0.0",
            "fileVersion": "15.0.0.0"
          }
        },
        "resources": {
          "lib/netstandard1.5/cs/Microsoft.TestPlatform.CoreUtilities.resources.dll": {
            "locale": "cs"
          },
          "lib/netstandard1.5/cs/Microsoft.VisualStudio.TestPlatform.ObjectModel.resources.dll": {
            "locale": "cs"
          },
          "lib/netstandard1.5/de/Microsoft.TestPlatform.CoreUtilities.resources.dll": {
            "locale": "de"
          },
          "lib/netstandard1.5/de/Microsoft.VisualStudio.TestPlatform.ObjectModel.resources.dll": {
            "locale": "de"
          },
          "lib/netstandard1.5/es/Microsoft.TestPlatform.CoreUtilities.resources.dll": {
            "locale": "es"
          },
          "lib/netstandard1.5/es/Microsoft.VisualStudio.TestPlatform.ObjectModel.resources.dll": {
            "locale": "es"
          },
          "lib/netstandard1.5/fr/Microsoft.TestPlatform.CoreUtilities.resources.dll": {
            "locale": "fr"
          },
          "lib/netstandard1.5/fr/Microsoft.VisualStudio.TestPlatform.ObjectModel.resources.dll": {
            "locale": "fr"
          },
          "lib/netstandard1.5/it/Microsoft.TestPlatform.CoreUtilities.resources.dll": {
            "locale": "it"
          },
          "lib/netstandard1.5/it/Microsoft.VisualStudio.TestPlatform.ObjectModel.resources.dll": {
            "locale": "it"
          },
          "lib/netstandard1.5/ja/Microsoft.TestPlatform.CoreUtilities.resources.dll": {
            "locale": "ja"
          },
          "lib/netstandard1.5/ja/Microsoft.VisualStudio.TestPlatform.ObjectModel.resources.dll": {
            "locale": "ja"
          },
          "lib/netstandard1.5/ko/Microsoft.TestPlatform.CoreUtilities.resources.dll": {
            "locale": "ko"
          },
          "lib/netstandard1.5/ko/Microsoft.VisualStudio.TestPlatform.ObjectModel.resources.dll": {
            "locale": "ko"
          },
          "lib/netstandard1.5/pl/Microsoft.TestPlatform.CoreUtilities.resources.dll": {
            "locale": "pl"
          },
          "lib/netstandard1.5/pl/Microsoft.VisualStudio.TestPlatform.ObjectModel.resources.dll": {
            "locale": "pl"
          },
          "lib/netstandard1.5/pt-BR/Microsoft.TestPlatform.CoreUtilities.resources.dll": {
            "locale": "pt-BR"
          },
          "lib/netstandard1.5/pt-BR/Microsoft.VisualStudio.TestPlatform.ObjectModel.resources.dll": {
            "locale": "pt-BR"
          },
          "lib/netstandard1.5/ru/Microsoft.TestPlatform.CoreUtilities.resources.dll": {
            "locale": "ru"
          },
          "lib/netstandard1.5/ru/Microsoft.VisualStudio.TestPlatform.ObjectModel.resources.dll": {
            "locale": "ru"
          },
          "lib/netstandard1.5/tr/Microsoft.TestPlatform.CoreUtilities.resources.dll": {
            "locale": "tr"
          },
          "lib/netstandard1.5/tr/Microsoft.VisualStudio.TestPlatform.ObjectModel.resources.dll": {
            "locale": "tr"
          },
          "lib/netstandard1.5/zh-Hans/Microsoft.TestPlatform.CoreUtilities.resources.dll": {
            "locale": "zh-Hans"
          },
          "lib/netstandard1.5/zh-Hans/Microsoft.VisualStudio.TestPlatform.ObjectModel.resources.dll": {
            "locale": "zh-Hans"
          },
          "lib/netstandard1.5/zh-Hant/Microsoft.TestPlatform.CoreUtilities.resources.dll": {
            "locale": "zh-Hant"
          },
          "lib/netstandard1.5/zh-Hant/Microsoft.VisualStudio.TestPlatform.ObjectModel.resources.dll": {
            "locale": "zh-Hant"
          }
        }
      },
      "Microsoft.TestPlatform.TestHost/15.7.2": {
        "dependencies": {
          "Microsoft.Extensions.DependencyModel": "1.0.3",
          "Microsoft.TestPlatform.ObjectModel": "15.7.2",
          "Newtonsoft.Json": "9.0.1"
        },
        "runtime": {
          "lib/netstandard1.5/Microsoft.TestPlatform.CommunicationUtilities.dll": {
            "assemblyVersion": "15.0.0.0",
            "fileVersion": "15.0.0.0"
          },
          "lib/netstandard1.5/Microsoft.TestPlatform.CrossPlatEngine.dll": {
            "assemblyVersion": "15.0.0.0",
            "fileVersion": "15.0.0.0"
          },
          "lib/netstandard1.5/Microsoft.VisualStudio.TestPlatform.Common.dll": {
            "assemblyVersion": "15.0.0.0",
            "fileVersion": "15.0.0.0"
          },
          "lib/netstandard1.5/testhost.dll": {
            "assemblyVersion": "15.0.0.0",
            "fileVersion": "15.0.0.0"
          }
        },
        "resources": {
          "lib/netstandard1.5/cs/Microsoft.TestPlatform.CommunicationUtilities.resources.dll": {
            "locale": "cs"
          },
          "lib/netstandard1.5/cs/Microsoft.TestPlatform.CrossPlatEngine.resources.dll": {
            "locale": "cs"
          },
          "lib/netstandard1.5/cs/Microsoft.VisualStudio.TestPlatform.Common.resources.dll": {
            "locale": "cs"
          },
          "lib/netstandard1.5/de/Microsoft.TestPlatform.CommunicationUtilities.resources.dll": {
            "locale": "de"
          },
          "lib/netstandard1.5/de/Microsoft.TestPlatform.CrossPlatEngine.resources.dll": {
            "locale": "de"
          },
          "lib/netstandard1.5/de/Microsoft.VisualStudio.TestPlatform.Common.resources.dll": {
            "locale": "de"
          },
          "lib/netstandard1.5/es/Microsoft.TestPlatform.CommunicationUtilities.resources.dll": {
            "locale": "es"
          },
          "lib/netstandard1.5/es/Microsoft.TestPlatform.CrossPlatEngine.resources.dll": {
            "locale": "es"
          },
          "lib/netstandard1.5/es/Microsoft.VisualStudio.TestPlatform.Common.resources.dll": {
            "locale": "es"
          },
          "lib/netstandard1.5/fr/Microsoft.TestPlatform.CommunicationUtilities.resources.dll": {
            "locale": "fr"
          },
          "lib/netstandard1.5/fr/Microsoft.TestPlatform.CrossPlatEngine.resources.dll": {
            "locale": "fr"
          },
          "lib/netstandard1.5/fr/Microsoft.VisualStudio.TestPlatform.Common.resources.dll": {
            "locale": "fr"
          },
          "lib/netstandard1.5/it/Microsoft.TestPlatform.CommunicationUtilities.resources.dll": {
            "locale": "it"
          },
          "lib/netstandard1.5/it/Microsoft.TestPlatform.CrossPlatEngine.resources.dll": {
            "locale": "it"
          },
          "lib/netstandard1.5/it/Microsoft.VisualStudio.TestPlatform.Common.resources.dll": {
            "locale": "it"
          },
          "lib/netstandard1.5/ja/Microsoft.TestPlatform.CommunicationUtilities.resources.dll": {
            "locale": "ja"
          },
          "lib/netstandard1.5/ja/Microsoft.TestPlatform.CrossPlatEngine.resources.dll": {
            "locale": "ja"
          },
          "lib/netstandard1.5/ja/Microsoft.VisualStudio.TestPlatform.Common.resources.dll": {
            "locale": "ja"
          },
          "lib/netstandard1.5/ko/Microsoft.TestPlatform.CommunicationUtilities.resources.dll": {
            "locale": "ko"
          },
          "lib/netstandard1.5/ko/Microsoft.TestPlatform.CrossPlatEngine.resources.dll": {
            "locale": "ko"
          },
          "lib/netstandard1.5/ko/Microsoft.VisualStudio.TestPlatform.Common.resources.dll": {
            "locale": "ko"
          },
          "lib/netstandard1.5/pl/Microsoft.TestPlatform.CommunicationUtilities.resources.dll": {
            "locale": "pl"
          },
          "lib/netstandard1.5/pl/Microsoft.TestPlatform.CrossPlatEngine.resources.dll": {
            "locale": "pl"
          },
          "lib/netstandard1.5/pl/Microsoft.VisualStudio.TestPlatform.Common.resources.dll": {
            "locale": "pl"
          },
          "lib/netstandard1.5/pt-BR/Microsoft.TestPlatform.CommunicationUtilities.resources.dll": {
            "locale": "pt-BR"
          },
          "lib/netstandard1.5/pt-BR/Microsoft.TestPlatform.CrossPlatEngine.resources.dll": {
            "locale": "pt-BR"
          },
          "lib/netstandard1.5/pt-BR/Microsoft.VisualStudio.TestPlatform.Common.resources.dll": {
            "locale": "pt-BR"
          },
          "lib/netstandard1.5/ru/Microsoft.TestPlatform.CommunicationUtilities.resources.dll": {
            "locale": "ru"
          },
          "lib/netstandard1.5/ru/Microsoft.TestPlatform.CrossPlatEngine.resources.dll": {
            "locale": "ru"
          },
          "lib/netstandard1.5/ru/Microsoft.VisualStudio.TestPlatform.Common.resources.dll": {
            "locale": "ru"
          },
          "lib/netstandard1.5/tr/Microsoft.TestPlatform.CommunicationUtilities.resources.dll": {
            "locale": "tr"
          },
          "lib/netstandard1.5/tr/Microsoft.TestPlatform.CrossPlatEngine.resources.dll": {
            "locale": "tr"
          },
          "lib/netstandard1.5/tr/Microsoft.VisualStudio.TestPlatform.Common.resources.dll": {
            "locale": "tr"
          },
          "lib/netstandard1.5/zh-Hans/Microsoft.TestPlatform.CommunicationUtilities.resources.dll": {
            "locale": "zh-Hans"
          },
          "lib/netstandard1.5/zh-Hans/Microsoft.TestPlatform.CrossPlatEngine.resources.dll": {
            "locale": "zh-Hans"
          },
          "lib/netstandard1.5/zh-Hans/Microsoft.VisualStudio.TestPlatform.Common.resources.dll": {
            "locale": "zh-Hans"
          },
          "lib/netstandard1.5/zh-Hant/Microsoft.TestPlatform.CommunicationUtilities.resources.dll": {
            "locale": "zh-Hant"
          },
          "lib/netstandard1.5/zh-Hant/Microsoft.TestPlatform.CrossPlatEngine.resources.dll": {
            "locale": "zh-Hant"
          },
          "lib/netstandard1.5/zh-Hant/Microsoft.VisualStudio.TestPlatform.Common.resources.dll": {
            "locale": "zh-Hant"
          }
        }
      },
      "Microsoft.Win32.Primitives/4.3.0": {
        "dependencies": {
          "Microsoft.NETCore.Platforms": "1.1.0",
          "Microsoft.NETCore.Targets": "1.1.0",
          "System.Runtime": "4.3.0"
        }
      },
      "Microsoft.Win32.Registry/4.0.0": {
        "dependencies": {
          "Microsoft.NETCore.Platforms": "1.1.0",
          "System.Collections": "4.3.0",
          "System.Globalization": "4.3.0",
          "System.Resources.ResourceManager": "4.3.0",
          "System.Runtime": "4.3.0",
          "System.Runtime.Extensions": "4.3.0",
          "System.Runtime.Handles": "4.3.0",
          "System.Runtime.InteropServices": "4.3.0"
        }
      },
      "NETStandard.Library/1.6.1": {
        "dependencies": {
          "Microsoft.NETCore.Platforms": "1.1.0",
          "Microsoft.Win32.Primitives": "4.3.0",
          "System.AppContext": "4.3.0",
          "System.Collections": "4.3.0",
          "System.Collections.Concurrent": "4.3.0",
          "System.Console": "4.3.0",
          "System.Diagnostics.Debug": "4.3.0",
          "System.Diagnostics.Tools": "4.3.0",
          "System.Diagnostics.Tracing": "4.3.0",
          "System.Globalization": "4.3.0",
          "System.Globalization.Calendars": "4.3.0",
          "System.IO": "4.3.0",
          "System.IO.Compression": "4.3.0",
          "System.IO.Compression.ZipFile": "4.3.0",
          "System.IO.FileSystem": "4.3.0",
          "System.IO.FileSystem.Primitives": "4.3.0",
          "System.Linq": "4.3.0",
          "System.Linq.Expressions": "4.3.0",
          "System.Net.Http": "4.3.0",
          "System.Net.Primitives": "4.3.0",
          "System.Net.Sockets": "4.3.0",
          "System.ObjectModel": "4.3.0",
          "System.Reflection": "4.3.0",
          "System.Reflection.Extensions": "4.3.0",
          "System.Reflection.Primitives": "4.3.0",
          "System.Resources.ResourceManager": "4.3.0",
          "System.Runtime": "4.3.0",
          "System.Runtime.Extensions": "4.3.0",
          "System.Runtime.Handles": "4.3.0",
          "System.Runtime.InteropServices": "4.3.0",
          "System.Runtime.InteropServices.RuntimeInformation": "4.3.0",
          "System.Runtime.Numerics": "4.3.0",
          "System.Security.Cryptography.Algorithms": "4.3.0",
          "System.Security.Cryptography.Encoding": "4.3.0",
          "System.Security.Cryptography.Primitives": "4.3.0",
          "System.Security.Cryptography.X509Certificates": "4.3.0",
          "System.Text.Encoding": "4.3.0",
          "System.Text.Encoding.Extensions": "4.3.0",
          "System.Text.RegularExpressions": "4.3.0",
          "System.Threading": "4.3.0",
          "System.Threading.Tasks": "4.3.0",
          "System.Threading.Timer": "4.3.0",
          "System.Xml.ReaderWriter": "4.3.0",
          "System.Xml.XDocument": "4.3.0"
        }
      },
      "Newtonsoft.Json/9.0.1": {
        "dependencies": {
          "Microsoft.CSharp": "4.0.1",
          "System.Collections": "4.3.0",
          "System.Diagnostics.Debug": "4.3.0",
          "System.Dynamic.Runtime": "4.0.11",
          "System.Globalization": "4.3.0",
          "System.IO": "4.3.0",
          "System.Linq": "4.3.0",
          "System.Linq.Expressions": "4.3.0",
          "System.ObjectModel": "4.3.0",
          "System.Reflection": "4.3.0",
          "System.Reflection.Extensions": "4.3.0",
          "System.Resources.ResourceManager": "4.3.0",
          "System.Runtime": "4.3.0",
          "System.Runtime.Extensions": "4.3.0",
          "System.Runtime.Serialization.Primitives": "4.1.1",
          "System.Text.Encoding": "4.3.0",
          "System.Text.Encoding.Extensions": "4.3.0",
          "System.Text.RegularExpressions": "4.3.0",
          "System.Threading": "4.3.0",
          "System.Threading.Tasks": "4.3.0",
          "System.Xml.ReaderWriter": "4.3.0",
          "System.Xml.XDocument": "4.3.0"
        },
        "runtime": {
          "lib/netstandard1.0/Newtonsoft.Json.dll": {
            "assemblyVersion": "9.0.0.0",
            "fileVersion": "9.0.1.19813"
          }
        }
      },
      "runtime.debian.8-x64.runtime.native.System.Security.Cryptography.OpenSsl/4.3.0": {},
      "runtime.fedora.23-x64.runtime.native.System.Security.Cryptography.OpenSsl/4.3.0": {},
      "runtime.fedora.24-x64.runtime.native.System.Security.Cryptography.OpenSsl/4.3.0": {},
      "runtime.native.System/4.3.0": {
        "dependencies": {
          "Microsoft.NETCore.Platforms": "1.1.0",
          "Microsoft.NETCore.Targets": "1.1.0"
        }
      },
      "runtime.native.System.IO.Compression/4.3.0": {
        "dependencies": {
          "Microsoft.NETCore.Platforms": "1.1.0",
          "Microsoft.NETCore.Targets": "1.1.0"
        }
      },
      "runtime.native.System.Net.Http/4.3.0": {
        "dependencies": {
          "Microsoft.NETCore.Platforms": "1.1.0",
          "Microsoft.NETCore.Targets": "1.1.0"
        }
      },
      "runtime.native.System.Security.Cryptography.Apple/4.3.0": {
        "dependencies": {
          "runtime.osx.10.10-x64.runtime.native.System.Security.Cryptography.Apple": "4.3.0"
        }
      },
      "runtime.native.System.Security.Cryptography.OpenSsl/4.3.0": {
        "dependencies": {
          "runtime.debian.8-x64.runtime.native.System.Security.Cryptography.OpenSsl": "4.3.0",
          "runtime.fedora.23-x64.runtime.native.System.Security.Cryptography.OpenSsl": "4.3.0",
          "runtime.fedora.24-x64.runtime.native.System.Security.Cryptography.OpenSsl": "4.3.0",
          "runtime.opensuse.13.2-x64.runtime.native.System.Security.Cryptography.OpenSsl": "4.3.0",
          "runtime.opensuse.42.1-x64.runtime.native.System.Security.Cryptography.OpenSsl": "4.3.0",
          "runtime.osx.10.10-x64.runtime.native.System.Security.Cryptography.OpenSsl": "4.3.0",
          "runtime.rhel.7-x64.runtime.native.System.Security.Cryptography.OpenSsl": "4.3.0",
          "runtime.ubuntu.14.04-x64.runtime.native.System.Security.Cryptography.OpenSsl": "4.3.0",
          "runtime.ubuntu.16.04-x64.runtime.native.System.Security.Cryptography.OpenSsl": "4.3.0",
          "runtime.ubuntu.16.10-x64.runtime.native.System.Security.Cryptography.OpenSsl": "4.3.0"
        }
      },
      "runtime.opensuse.13.2-x64.runtime.native.System.Security.Cryptography.OpenSsl/4.3.0": {},
      "runtime.opensuse.42.1-x64.runtime.native.System.Security.Cryptography.OpenSsl/4.3.0": {},
      "runtime.osx.10.10-x64.runtime.native.System.Security.Cryptography.Apple/4.3.0": {},
      "runtime.osx.10.10-x64.runtime.native.System.Security.Cryptography.OpenSsl/4.3.0": {},
      "runtime.rhel.7-x64.runtime.native.System.Security.Cryptography.OpenSsl/4.3.0": {},
      "runtime.ubuntu.14.04-x64.runtime.native.System.Security.Cryptography.OpenSsl/4.3.0": {},
      "runtime.ubuntu.16.04-x64.runtime.native.System.Security.Cryptography.OpenSsl/4.3.0": {},
      "runtime.ubuntu.16.10-x64.runtime.native.System.Security.Cryptography.OpenSsl/4.3.0": {},
      "StyleCop.Analyzers/1.0.2": {},
      "System.AppContext/4.3.0": {
        "dependencies": {
          "System.Runtime": "4.3.0"
        }
      },
      "System.Buffers/4.3.0": {
        "dependencies": {
          "System.Diagnostics.Debug": "4.3.0",
          "System.Diagnostics.Tracing": "4.3.0",
          "System.Resources.ResourceManager": "4.3.0",
          "System.Runtime": "4.3.0",
          "System.Threading": "4.3.0"
        }
      },
      "System.Collections/4.3.0": {
        "dependencies": {
          "Microsoft.NETCore.Platforms": "1.1.0",
          "Microsoft.NETCore.Targets": "1.1.0",
          "System.Runtime": "4.3.0"
        }
      },
      "System.Collections.Concurrent/4.3.0": {
        "dependencies": {
          "System.Collections": "4.3.0",
          "System.Diagnostics.Debug": "4.3.0",
          "System.Diagnostics.Tracing": "4.3.0",
          "System.Globalization": "4.3.0",
          "System.Reflection": "4.3.0",
          "System.Resources.ResourceManager": "4.3.0",
          "System.Runtime": "4.3.0",
          "System.Runtime.Extensions": "4.3.0",
          "System.Threading": "4.3.0",
          "System.Threading.Tasks": "4.3.0"
        }
      },
      "System.Collections.Immutable/1.2.0": {
        "dependencies": {
          "System.Collections": "4.3.0",
          "System.Diagnostics.Debug": "4.3.0",
          "System.Globalization": "4.3.0",
          "System.Linq": "4.3.0",
          "System.Resources.ResourceManager": "4.3.0",
          "System.Runtime": "4.3.0",
          "System.Runtime.Extensions": "4.3.0",
          "System.Threading": "4.3.0"
        }
      },
      "System.Collections.NonGeneric/4.0.1": {
        "dependencies": {
          "System.Diagnostics.Debug": "4.3.0",
          "System.Globalization": "4.3.0",
          "System.Resources.ResourceManager": "4.3.0",
          "System.Runtime": "4.3.0",
          "System.Runtime.Extensions": "4.3.0",
          "System.Threading": "4.3.0"
        }
      },
      "System.Collections.Specialized/4.0.1": {
        "dependencies": {
          "System.Collections.NonGeneric": "4.0.1",
          "System.Globalization": "4.3.0",
          "System.Globalization.Extensions": "4.3.0",
          "System.Resources.ResourceManager": "4.3.0",
          "System.Runtime": "4.3.0",
          "System.Runtime.Extensions": "4.3.0",
          "System.Threading": "4.3.0"
        }
      },
      "System.ComponentModel/4.0.1": {
        "dependencies": {
          "System.Runtime": "4.3.0"
        }
      },
      "System.ComponentModel.EventBasedAsync/4.0.11": {
        "dependencies": {
          "System.Resources.ResourceManager": "4.3.0",
          "System.Runtime": "4.3.0",
          "System.Threading": "4.3.0",
          "System.Threading.Tasks": "4.3.0"
        }
      },
      "System.ComponentModel.Primitives/4.1.0": {
        "dependencies": {
          "System.ComponentModel": "4.0.1",
          "System.Resources.ResourceManager": "4.3.0",
          "System.Runtime": "4.3.0"
        }
      },
      "System.ComponentModel.TypeConverter/4.1.0": {
        "dependencies": {
          "System.Collections": "4.3.0",
          "System.Collections.NonGeneric": "4.0.1",
          "System.Collections.Specialized": "4.0.1",
          "System.ComponentModel": "4.0.1",
          "System.ComponentModel.Primitives": "4.1.0",
          "System.Globalization": "4.3.0",
          "System.Linq": "4.3.0",
          "System.Reflection": "4.3.0",
          "System.Reflection.Extensions": "4.3.0",
          "System.Reflection.Primitives": "4.3.0",
          "System.Reflection.TypeExtensions": "4.3.0",
          "System.Resources.ResourceManager": "4.3.0",
          "System.Runtime": "4.3.0",
          "System.Runtime.Extensions": "4.3.0",
          "System.Threading": "4.3.0"
        }
      },
      "System.Console/4.3.0": {
        "dependencies": {
          "Microsoft.NETCore.Platforms": "1.1.0",
          "Microsoft.NETCore.Targets": "1.1.0",
          "System.IO": "4.3.0",
          "System.Runtime": "4.3.0",
          "System.Text.Encoding": "4.3.0"
        }
      },
      "System.Diagnostics.Debug/4.3.0": {
        "dependencies": {
          "Microsoft.NETCore.Platforms": "1.1.0",
          "Microsoft.NETCore.Targets": "1.1.0",
          "System.Runtime": "4.3.0"
        }
      },
      "System.Diagnostics.DiagnosticSource/4.3.0": {
        "dependencies": {
          "System.Collections": "4.3.0",
          "System.Diagnostics.Tracing": "4.3.0",
          "System.Reflection": "4.3.0",
          "System.Runtime": "4.3.0",
          "System.Threading": "4.3.0"
        }
      },
      "System.Diagnostics.Process/4.1.0": {
        "dependencies": {
          "Microsoft.NETCore.Platforms": "1.1.0",
          "Microsoft.Win32.Primitives": "4.3.0",
          "Microsoft.Win32.Registry": "4.0.0",
          "System.Collections": "4.3.0",
          "System.Diagnostics.Debug": "4.3.0",
          "System.Globalization": "4.3.0",
          "System.IO": "4.3.0",
          "System.IO.FileSystem": "4.3.0",
          "System.IO.FileSystem.Primitives": "4.3.0",
          "System.Resources.ResourceManager": "4.3.0",
          "System.Runtime": "4.3.0",
          "System.Runtime.Extensions": "4.3.0",
          "System.Runtime.Handles": "4.3.0",
          "System.Runtime.InteropServices": "4.3.0",
          "System.Text.Encoding": "4.3.0",
          "System.Text.Encoding.Extensions": "4.3.0",
          "System.Threading": "4.3.0",
          "System.Threading.Tasks": "4.3.0",
          "System.Threading.Thread": "4.0.0",
          "System.Threading.ThreadPool": "4.0.10",
          "runtime.native.System": "4.3.0"
        }
      },
      "System.Diagnostics.TextWriterTraceListener/4.0.0": {
        "dependencies": {
          "System.Diagnostics.TraceSource": "4.0.0",
          "System.Globalization": "4.3.0",
          "System.IO": "4.3.0",
          "System.Resources.ResourceManager": "4.3.0",
          "System.Runtime": "4.3.0",
          "System.Threading": "4.3.0"
        }
      },
      "System.Diagnostics.Tools/4.3.0": {
        "dependencies": {
          "Microsoft.NETCore.Platforms": "1.1.0",
          "Microsoft.NETCore.Targets": "1.1.0",
          "System.Runtime": "4.3.0"
        }
      },
      "System.Diagnostics.TraceSource/4.0.0": {
        "dependencies": {
          "Microsoft.NETCore.Platforms": "1.1.0",
          "System.Collections": "4.3.0",
          "System.Diagnostics.Debug": "4.3.0",
          "System.Globalization": "4.3.0",
          "System.Resources.ResourceManager": "4.3.0",
          "System.Runtime": "4.3.0",
          "System.Runtime.Extensions": "4.3.0",
          "System.Threading": "4.3.0",
          "runtime.native.System": "4.3.0"
        }
      },
      "System.Diagnostics.Tracing/4.3.0": {
        "dependencies": {
          "Microsoft.NETCore.Platforms": "1.1.0",
          "Microsoft.NETCore.Targets": "1.1.0",
          "System.Runtime": "4.3.0"
        }
      },
      "System.Dynamic.Runtime/4.0.11": {
        "dependencies": {
          "System.Collections": "4.3.0",
          "System.Diagnostics.Debug": "4.3.0",
          "System.Globalization": "4.3.0",
          "System.Linq": "4.3.0",
          "System.Linq.Expressions": "4.3.0",
          "System.ObjectModel": "4.3.0",
          "System.Reflection": "4.3.0",
          "System.Reflection.Emit": "4.3.0",
          "System.Reflection.Emit.ILGeneration": "4.3.0",
          "System.Reflection.Primitives": "4.3.0",
          "System.Reflection.TypeExtensions": "4.3.0",
          "System.Resources.ResourceManager": "4.3.0",
          "System.Runtime": "4.3.0",
          "System.Runtime.Extensions": "4.3.0",
          "System.Threading": "4.3.0"
        }
      },
      "System.Globalization/4.3.0": {
        "dependencies": {
          "Microsoft.NETCore.Platforms": "1.1.0",
          "Microsoft.NETCore.Targets": "1.1.0",
          "System.Runtime": "4.3.0"
        }
      },
      "System.Globalization.Calendars/4.3.0": {
        "dependencies": {
          "Microsoft.NETCore.Platforms": "1.1.0",
          "Microsoft.NETCore.Targets": "1.1.0",
          "System.Globalization": "4.3.0",
          "System.Runtime": "4.3.0"
        }
      },
      "System.Globalization.Extensions/4.3.0": {
        "dependencies": {
          "Microsoft.NETCore.Platforms": "1.1.0",
          "System.Globalization": "4.3.0",
          "System.Resources.ResourceManager": "4.3.0",
          "System.Runtime": "4.3.0",
          "System.Runtime.Extensions": "4.3.0",
          "System.Runtime.InteropServices": "4.3.0"
        }
      },
      "System.IO/4.3.0": {
        "dependencies": {
          "Microsoft.NETCore.Platforms": "1.1.0",
          "Microsoft.NETCore.Targets": "1.1.0",
          "System.Runtime": "4.3.0",
          "System.Text.Encoding": "4.3.0",
          "System.Threading.Tasks": "4.3.0"
        }
      },
      "System.IO.Compression/4.3.0": {
        "dependencies": {
          "Microsoft.NETCore.Platforms": "1.1.0",
          "System.Buffers": "4.3.0",
          "System.Collections": "4.3.0",
          "System.Diagnostics.Debug": "4.3.0",
          "System.IO": "4.3.0",
          "System.Resources.ResourceManager": "4.3.0",
          "System.Runtime": "4.3.0",
          "System.Runtime.Extensions": "4.3.0",
          "System.Runtime.Handles": "4.3.0",
          "System.Runtime.InteropServices": "4.3.0",
          "System.Text.Encoding": "4.3.0",
          "System.Threading": "4.3.0",
          "System.Threading.Tasks": "4.3.0",
          "runtime.native.System": "4.3.0",
          "runtime.native.System.IO.Compression": "4.3.0"
        }
      },
      "System.IO.Compression.ZipFile/4.3.0": {
        "dependencies": {
          "System.Buffers": "4.3.0",
          "System.IO": "4.3.0",
          "System.IO.Compression": "4.3.0",
          "System.IO.FileSystem": "4.3.0",
          "System.IO.FileSystem.Primitives": "4.3.0",
          "System.Resources.ResourceManager": "4.3.0",
          "System.Runtime": "4.3.0",
          "System.Runtime.Extensions": "4.3.0",
          "System.Text.Encoding": "4.3.0"
        }
      },
      "System.IO.FileSystem/4.3.0": {
        "dependencies": {
          "Microsoft.NETCore.Platforms": "1.1.0",
          "Microsoft.NETCore.Targets": "1.1.0",
          "System.IO": "4.3.0",
          "System.IO.FileSystem.Primitives": "4.3.0",
          "System.Runtime": "4.3.0",
          "System.Runtime.Handles": "4.3.0",
          "System.Text.Encoding": "4.3.0",
          "System.Threading.Tasks": "4.3.0"
        }
      },
      "System.IO.FileSystem.Primitives/4.3.0": {
        "dependencies": {
          "System.Runtime": "4.3.0"
        }
      },
      "System.Linq/4.3.0": {
        "dependencies": {
          "System.Collections": "4.3.0",
          "System.Diagnostics.Debug": "4.3.0",
          "System.Resources.ResourceManager": "4.3.0",
          "System.Runtime": "4.3.0",
          "System.Runtime.Extensions": "4.3.0"
        }
      },
      "System.Linq.Expressions/4.3.0": {
        "dependencies": {
          "System.Collections": "4.3.0",
          "System.Diagnostics.Debug": "4.3.0",
          "System.Globalization": "4.3.0",
          "System.IO": "4.3.0",
          "System.Linq": "4.3.0",
          "System.ObjectModel": "4.3.0",
          "System.Reflection": "4.3.0",
          "System.Reflection.Emit": "4.3.0",
          "System.Reflection.Emit.ILGeneration": "4.3.0",
          "System.Reflection.Emit.Lightweight": "4.3.0",
          "System.Reflection.Extensions": "4.3.0",
          "System.Reflection.Primitives": "4.3.0",
          "System.Reflection.TypeExtensions": "4.3.0",
          "System.Resources.ResourceManager": "4.3.0",
          "System.Runtime": "4.3.0",
          "System.Runtime.Extensions": "4.3.0",
          "System.Threading": "4.3.0"
        }
      },
      "System.Net.Http/4.3.0": {
        "dependencies": {
          "Microsoft.NETCore.Platforms": "1.1.0",
          "System.Collections": "4.3.0",
          "System.Diagnostics.Debug": "4.3.0",
          "System.Diagnostics.DiagnosticSource": "4.3.0",
          "System.Diagnostics.Tracing": "4.3.0",
          "System.Globalization": "4.3.0",
          "System.Globalization.Extensions": "4.3.0",
          "System.IO": "4.3.0",
          "System.IO.FileSystem": "4.3.0",
          "System.Net.Primitives": "4.3.0",
          "System.Resources.ResourceManager": "4.3.0",
          "System.Runtime": "4.3.0",
          "System.Runtime.Extensions": "4.3.0",
          "System.Runtime.Handles": "4.3.0",
          "System.Runtime.InteropServices": "4.3.0",
          "System.Security.Cryptography.Algorithms": "4.3.0",
          "System.Security.Cryptography.Encoding": "4.3.0",
          "System.Security.Cryptography.OpenSsl": "4.3.0",
          "System.Security.Cryptography.Primitives": "4.3.0",
          "System.Security.Cryptography.X509Certificates": "4.3.0",
          "System.Text.Encoding": "4.3.0",
          "System.Threading": "4.3.0",
          "System.Threading.Tasks": "4.3.0",
          "runtime.native.System": "4.3.0",
          "runtime.native.System.Net.Http": "4.3.0",
          "runtime.native.System.Security.Cryptography.OpenSsl": "4.3.0"
        }
      },
      "System.Net.Primitives/4.3.0": {
        "dependencies": {
          "Microsoft.NETCore.Platforms": "1.1.0",
          "Microsoft.NETCore.Targets": "1.1.0",
          "System.Runtime": "4.3.0",
          "System.Runtime.Handles": "4.3.0"
        }
      },
      "System.Net.Sockets/4.3.0": {
        "dependencies": {
          "Microsoft.NETCore.Platforms": "1.1.0",
          "Microsoft.NETCore.Targets": "1.1.0",
          "System.IO": "4.3.0",
          "System.Net.Primitives": "4.3.0",
          "System.Runtime": "4.3.0",
          "System.Threading.Tasks": "4.3.0"
        }
      },
      "System.ObjectModel/4.3.0": {
        "dependencies": {
          "System.Collections": "4.3.0",
          "System.Diagnostics.Debug": "4.3.0",
          "System.Resources.ResourceManager": "4.3.0",
          "System.Runtime": "4.3.0",
          "System.Threading": "4.3.0"
        }
      },
      "System.Private.DataContractSerialization/4.1.1": {
        "dependencies": {
          "System.Collections": "4.3.0",
          "System.Collections.Concurrent": "4.3.0",
          "System.Diagnostics.Debug": "4.3.0",
          "System.Globalization": "4.3.0",
          "System.IO": "4.3.0",
          "System.Linq": "4.3.0",
          "System.Reflection": "4.3.0",
          "System.Reflection.Emit.ILGeneration": "4.3.0",
          "System.Reflection.Emit.Lightweight": "4.3.0",
          "System.Reflection.Extensions": "4.3.0",
          "System.Reflection.Primitives": "4.3.0",
          "System.Reflection.TypeExtensions": "4.3.0",
          "System.Resources.ResourceManager": "4.3.0",
          "System.Runtime": "4.3.0",
          "System.Runtime.Extensions": "4.3.0",
          "System.Runtime.Serialization.Primitives": "4.1.1",
          "System.Text.Encoding": "4.3.0",
          "System.Text.Encoding.Extensions": "4.3.0",
          "System.Text.RegularExpressions": "4.3.0",
          "System.Threading": "4.3.0",
          "System.Threading.Tasks": "4.3.0",
          "System.Xml.ReaderWriter": "4.3.0",
          "System.Xml.XmlDocument": "4.0.1",
          "System.Xml.XmlSerializer": "4.0.11"
        }
      },
      "System.Reflection/4.3.0": {
        "dependencies": {
          "Microsoft.NETCore.Platforms": "1.1.0",
          "Microsoft.NETCore.Targets": "1.1.0",
          "System.IO": "4.3.0",
          "System.Reflection.Primitives": "4.3.0",
          "System.Runtime": "4.3.0"
        }
      },
      "System.Reflection.Emit/4.3.0": {
        "dependencies": {
          "System.IO": "4.3.0",
          "System.Reflection": "4.3.0",
          "System.Reflection.Emit.ILGeneration": "4.3.0",
          "System.Reflection.Primitives": "4.3.0",
          "System.Runtime": "4.3.0"
        }
      },
      "System.Reflection.Emit.ILGeneration/4.3.0": {
        "dependencies": {
          "System.Reflection": "4.3.0",
          "System.Reflection.Primitives": "4.3.0",
          "System.Runtime": "4.3.0"
        }
      },
      "System.Reflection.Emit.Lightweight/4.3.0": {
        "dependencies": {
          "System.Reflection": "4.3.0",
          "System.Reflection.Emit.ILGeneration": "4.3.0",
          "System.Reflection.Primitives": "4.3.0",
          "System.Runtime": "4.3.0"
        }
      },
      "System.Reflection.Extensions/4.3.0": {
        "dependencies": {
          "Microsoft.NETCore.Platforms": "1.1.0",
          "Microsoft.NETCore.Targets": "1.1.0",
          "System.Reflection": "4.3.0",
          "System.Runtime": "4.3.0"
        }
      },
      "System.Reflection.Metadata/1.3.0": {
        "dependencies": {
          "System.Collections": "4.3.0",
          "System.Collections.Immutable": "1.2.0",
          "System.Diagnostics.Debug": "4.3.0",
          "System.IO": "4.3.0",
          "System.Linq": "4.3.0",
          "System.Reflection": "4.3.0",
          "System.Reflection.Extensions": "4.3.0",
          "System.Reflection.Primitives": "4.3.0",
          "System.Resources.ResourceManager": "4.3.0",
          "System.Runtime": "4.3.0",
          "System.Runtime.Extensions": "4.3.0",
          "System.Runtime.InteropServices": "4.3.0",
          "System.Text.Encoding": "4.3.0",
          "System.Text.Encoding.Extensions": "4.3.0",
          "System.Threading": "4.3.0"
        }
      },
      "System.Reflection.Primitives/4.3.0": {
        "dependencies": {
          "Microsoft.NETCore.Platforms": "1.1.0",
          "Microsoft.NETCore.Targets": "1.1.0",
          "System.Runtime": "4.3.0"
        }
      },
      "System.Reflection.TypeExtensions/4.3.0": {
        "dependencies": {
          "System.Reflection": "4.3.0",
          "System.Runtime": "4.3.0"
        }
      },
      "System.Resources.ResourceManager/4.3.0": {
        "dependencies": {
          "Microsoft.NETCore.Platforms": "1.1.0",
          "Microsoft.NETCore.Targets": "1.1.0",
          "System.Globalization": "4.3.0",
          "System.Reflection": "4.3.0",
          "System.Runtime": "4.3.0"
        }
      },
      "System.Runtime/4.3.0": {
        "dependencies": {
          "Microsoft.NETCore.Platforms": "1.1.0",
          "Microsoft.NETCore.Targets": "1.1.0"
        }
      },
      "System.Runtime.Extensions/4.3.0": {
        "dependencies": {
          "Microsoft.NETCore.Platforms": "1.1.0",
          "Microsoft.NETCore.Targets": "1.1.0",
          "System.Runtime": "4.3.0"
        }
      },
      "System.Runtime.Handles/4.3.0": {
        "dependencies": {
          "Microsoft.NETCore.Platforms": "1.1.0",
          "Microsoft.NETCore.Targets": "1.1.0",
          "System.Runtime": "4.3.0"
        }
      },
      "System.Runtime.InteropServices/4.3.0": {
        "dependencies": {
          "Microsoft.NETCore.Platforms": "1.1.0",
          "Microsoft.NETCore.Targets": "1.1.0",
          "System.Reflection": "4.3.0",
          "System.Reflection.Primitives": "4.3.0",
          "System.Runtime": "4.3.0",
          "System.Runtime.Handles": "4.3.0"
        }
      },
      "System.Runtime.InteropServices.RuntimeInformation/4.3.0": {
        "dependencies": {
          "System.Reflection": "4.3.0",
          "System.Reflection.Extensions": "4.3.0",
          "System.Resources.ResourceManager": "4.3.0",
          "System.Runtime": "4.3.0",
          "System.Runtime.InteropServices": "4.3.0",
          "System.Threading": "4.3.0",
          "runtime.native.System": "4.3.0"
        }
      },
      "System.Runtime.Loader/4.0.0": {
        "dependencies": {
          "System.IO": "4.3.0",
          "System.Reflection": "4.3.0",
          "System.Runtime": "4.3.0"
        }
      },
      "System.Runtime.Numerics/4.3.0": {
        "dependencies": {
          "System.Globalization": "4.3.0",
          "System.Resources.ResourceManager": "4.3.0",
          "System.Runtime": "4.3.0",
          "System.Runtime.Extensions": "4.3.0"
        }
      },
      "System.Runtime.Serialization.Json/4.0.2": {
        "dependencies": {
          "System.IO": "4.3.0",
          "System.Private.DataContractSerialization": "4.1.1",
          "System.Runtime": "4.3.0"
        }
      },
      "System.Runtime.Serialization.Primitives/4.1.1": {
        "dependencies": {
          "System.Resources.ResourceManager": "4.3.0",
          "System.Runtime": "4.3.0"
        }
      },
      "System.Security.Cryptography.Algorithms/4.3.0": {
        "dependencies": {
          "Microsoft.NETCore.Platforms": "1.1.0",
          "System.Collections": "4.3.0",
          "System.IO": "4.3.0",
          "System.Resources.ResourceManager": "4.3.0",
          "System.Runtime": "4.3.0",
          "System.Runtime.Extensions": "4.3.0",
          "System.Runtime.Handles": "4.3.0",
          "System.Runtime.InteropServices": "4.3.0",
          "System.Runtime.Numerics": "4.3.0",
          "System.Security.Cryptography.Encoding": "4.3.0",
          "System.Security.Cryptography.Primitives": "4.3.0",
          "System.Text.Encoding": "4.3.0",
          "runtime.native.System.Security.Cryptography.Apple": "4.3.0",
          "runtime.native.System.Security.Cryptography.OpenSsl": "4.3.0"
        }
      },
      "System.Security.Cryptography.Cng/4.3.0": {
        "dependencies": {
          "Microsoft.NETCore.Platforms": "1.1.0",
          "System.IO": "4.3.0",
          "System.Resources.ResourceManager": "4.3.0",
          "System.Runtime": "4.3.0",
          "System.Runtime.Extensions": "4.3.0",
          "System.Runtime.Handles": "4.3.0",
          "System.Runtime.InteropServices": "4.3.0",
          "System.Security.Cryptography.Algorithms": "4.3.0",
          "System.Security.Cryptography.Encoding": "4.3.0",
          "System.Security.Cryptography.Primitives": "4.3.0",
          "System.Text.Encoding": "4.3.0"
        }
      },
      "System.Security.Cryptography.Csp/4.3.0": {
        "dependencies": {
          "Microsoft.NETCore.Platforms": "1.1.0",
          "System.IO": "4.3.0",
          "System.Reflection": "4.3.0",
          "System.Resources.ResourceManager": "4.3.0",
          "System.Runtime": "4.3.0",
          "System.Runtime.Extensions": "4.3.0",
          "System.Runtime.Handles": "4.3.0",
          "System.Runtime.InteropServices": "4.3.0",
          "System.Security.Cryptography.Algorithms": "4.3.0",
          "System.Security.Cryptography.Encoding": "4.3.0",
          "System.Security.Cryptography.Primitives": "4.3.0",
          "System.Text.Encoding": "4.3.0",
          "System.Threading": "4.3.0"
        }
      },
      "System.Security.Cryptography.Encoding/4.3.0": {
        "dependencies": {
          "Microsoft.NETCore.Platforms": "1.1.0",
          "System.Collections": "4.3.0",
          "System.Collections.Concurrent": "4.3.0",
          "System.Linq": "4.3.0",
          "System.Resources.ResourceManager": "4.3.0",
          "System.Runtime": "4.3.0",
          "System.Runtime.Extensions": "4.3.0",
          "System.Runtime.Handles": "4.3.0",
          "System.Runtime.InteropServices": "4.3.0",
          "System.Security.Cryptography.Primitives": "4.3.0",
          "System.Text.Encoding": "4.3.0",
          "runtime.native.System.Security.Cryptography.OpenSsl": "4.3.0"
        }
      },
      "System.Security.Cryptography.OpenSsl/4.3.0": {
        "dependencies": {
          "System.Collections": "4.3.0",
          "System.IO": "4.3.0",
          "System.Resources.ResourceManager": "4.3.0",
          "System.Runtime": "4.3.0",
          "System.Runtime.Extensions": "4.3.0",
          "System.Runtime.Handles": "4.3.0",
          "System.Runtime.InteropServices": "4.3.0",
          "System.Runtime.Numerics": "4.3.0",
          "System.Security.Cryptography.Algorithms": "4.3.0",
          "System.Security.Cryptography.Encoding": "4.3.0",
          "System.Security.Cryptography.Primitives": "4.3.0",
          "System.Text.Encoding": "4.3.0",
          "runtime.native.System.Security.Cryptography.OpenSsl": "4.3.0"
        }
      },
      "System.Security.Cryptography.Primitives/4.3.0": {
        "dependencies": {
          "System.Diagnostics.Debug": "4.3.0",
          "System.Globalization": "4.3.0",
          "System.IO": "4.3.0",
          "System.Resources.ResourceManager": "4.3.0",
          "System.Runtime": "4.3.0",
          "System.Threading": "4.3.0",
          "System.Threading.Tasks": "4.3.0"
        }
      },
      "System.Security.Cryptography.X509Certificates/4.3.0": {
        "dependencies": {
          "Microsoft.NETCore.Platforms": "1.1.0",
          "System.Collections": "4.3.0",
          "System.Diagnostics.Debug": "4.3.0",
          "System.Globalization": "4.3.0",
          "System.Globalization.Calendars": "4.3.0",
          "System.IO": "4.3.0",
          "System.IO.FileSystem": "4.3.0",
          "System.IO.FileSystem.Primitives": "4.3.0",
          "System.Resources.ResourceManager": "4.3.0",
          "System.Runtime": "4.3.0",
          "System.Runtime.Extensions": "4.3.0",
          "System.Runtime.Handles": "4.3.0",
          "System.Runtime.InteropServices": "4.3.0",
          "System.Runtime.Numerics": "4.3.0",
          "System.Security.Cryptography.Algorithms": "4.3.0",
          "System.Security.Cryptography.Cng": "4.3.0",
          "System.Security.Cryptography.Csp": "4.3.0",
          "System.Security.Cryptography.Encoding": "4.3.0",
          "System.Security.Cryptography.OpenSsl": "4.3.0",
          "System.Security.Cryptography.Primitives": "4.3.0",
          "System.Text.Encoding": "4.3.0",
          "System.Threading": "4.3.0",
          "runtime.native.System": "4.3.0",
          "runtime.native.System.Net.Http": "4.3.0",
          "runtime.native.System.Security.Cryptography.OpenSsl": "4.3.0"
        }
      },
      "System.Text.Encoding/4.3.0": {
        "dependencies": {
          "Microsoft.NETCore.Platforms": "1.1.0",
          "Microsoft.NETCore.Targets": "1.1.0",
          "System.Runtime": "4.3.0"
        }
      },
      "System.Text.Encoding.Extensions/4.3.0": {
        "dependencies": {
          "Microsoft.NETCore.Platforms": "1.1.0",
          "Microsoft.NETCore.Targets": "1.1.0",
          "System.Runtime": "4.3.0",
          "System.Text.Encoding": "4.3.0"
        }
      },
      "System.Text.RegularExpressions/4.3.0": {
        "dependencies": {
          "System.Runtime": "4.3.0"
        }
      },
      "System.Threading/4.3.0": {
        "dependencies": {
          "System.Runtime": "4.3.0",
          "System.Threading.Tasks": "4.3.0"
        }
      },
      "System.Threading.Tasks/4.3.0": {
        "dependencies": {
          "Microsoft.NETCore.Platforms": "1.1.0",
          "Microsoft.NETCore.Targets": "1.1.0",
          "System.Runtime": "4.3.0"
        }
      },
      "System.Threading.Tasks.Extensions/4.5.2": {},
      "System.Threading.Thread/4.0.0": {
        "dependencies": {
          "System.Runtime": "4.3.0"
        }
      },
      "System.Threading.ThreadPool/4.0.10": {
        "dependencies": {
          "System.Runtime": "4.3.0",
          "System.Runtime.Handles": "4.3.0"
        }
      },
      "System.Threading.Timer/4.3.0": {
        "dependencies": {
          "Microsoft.NETCore.Platforms": "1.1.0",
          "Microsoft.NETCore.Targets": "1.1.0",
          "System.Runtime": "4.3.0"
        }
      },
      "System.Xml.ReaderWriter/4.3.0": {
        "dependencies": {
          "System.Collections": "4.3.0",
          "System.Diagnostics.Debug": "4.3.0",
          "System.Globalization": "4.3.0",
          "System.IO": "4.3.0",
          "System.IO.FileSystem": "4.3.0",
          "System.IO.FileSystem.Primitives": "4.3.0",
          "System.Resources.ResourceManager": "4.3.0",
          "System.Runtime": "4.3.0",
          "System.Runtime.Extensions": "4.3.0",
          "System.Runtime.InteropServices": "4.3.0",
          "System.Text.Encoding": "4.3.0",
          "System.Text.Encoding.Extensions": "4.3.0",
          "System.Text.RegularExpressions": "4.3.0",
          "System.Threading.Tasks": "4.3.0",
          "System.Threading.Tasks.Extensions": "4.5.2"
        }
      },
      "System.Xml.XDocument/4.3.0": {
        "dependencies": {
          "System.Collections": "4.3.0",
          "System.Diagnostics.Debug": "4.3.0",
          "System.Diagnostics.Tools": "4.3.0",
          "System.Globalization": "4.3.0",
          "System.IO": "4.3.0",
          "System.Reflection": "4.3.0",
          "System.Resources.ResourceManager": "4.3.0",
          "System.Runtime": "4.3.0",
          "System.Runtime.Extensions": "4.3.0",
          "System.Text.Encoding": "4.3.0",
          "System.Threading": "4.3.0",
          "System.Xml.ReaderWriter": "4.3.0"
        }
      },
      "System.Xml.XmlDocument/4.0.1": {
        "dependencies": {
          "System.Collections": "4.3.0",
          "System.Diagnostics.Debug": "4.3.0",
          "System.Globalization": "4.3.0",
          "System.IO": "4.3.0",
          "System.Resources.ResourceManager": "4.3.0",
          "System.Runtime": "4.3.0",
          "System.Runtime.Extensions": "4.3.0",
          "System.Text.Encoding": "4.3.0",
          "System.Threading": "4.3.0",
          "System.Xml.ReaderWriter": "4.3.0"
        }
      },
      "System.Xml.XmlSerializer/4.0.11": {
        "dependencies": {
          "System.Collections": "4.3.0",
          "System.Globalization": "4.3.0",
          "System.IO": "4.3.0",
          "System.Linq": "4.3.0",
          "System.Reflection": "4.3.0",
          "System.Reflection.Emit": "4.3.0",
          "System.Reflection.Emit.ILGeneration": "4.3.0",
          "System.Reflection.Extensions": "4.3.0",
          "System.Reflection.Primitives": "4.3.0",
          "System.Reflection.TypeExtensions": "4.3.0",
          "System.Resources.ResourceManager": "4.3.0",
          "System.Runtime": "4.3.0",
          "System.Runtime.Extensions": "4.3.0",
          "System.Text.RegularExpressions": "4.3.0",
          "System.Threading": "4.3.0",
          "System.Xml.ReaderWriter": "4.3.0",
          "System.Xml.XmlDocument": "4.0.1"
        }
      },
      "System.Xml.XPath/4.0.1": {
        "dependencies": {
          "System.Collections": "4.3.0",
          "System.Diagnostics.Debug": "4.3.0",
          "System.Globalization": "4.3.0",
          "System.IO": "4.3.0",
          "System.Resources.ResourceManager": "4.3.0",
          "System.Runtime": "4.3.0",
          "System.Runtime.Extensions": "4.3.0",
          "System.Threading": "4.3.0",
          "System.Xml.ReaderWriter": "4.3.0"
        }
      },
      "System.Xml.XPath.XmlDocument/4.0.1": {
        "dependencies": {
          "System.Collections": "4.3.0",
          "System.Globalization": "4.3.0",
          "System.IO": "4.3.0",
          "System.Resources.ResourceManager": "4.3.0",
          "System.Runtime": "4.3.0",
          "System.Runtime.Extensions": "4.3.0",
          "System.Threading": "4.3.0",
          "System.Xml.ReaderWriter": "4.3.0",
          "System.Xml.XPath": "4.0.1",
          "System.Xml.XmlDocument": "4.0.1"
        },
        "runtime": {
          "lib/netstandard1.3/System.Xml.XPath.XmlDocument.dll": {
            "assemblyVersion": "4.0.1.0",
            "fileVersion": "1.0.24212.1"
          }
        }
      },
      "xunit/2.4.1": {
        "dependencies": {
          "xunit.analyzers": "0.10.0",
          "xunit.assert": "2.4.1",
          "xunit.core": "2.4.1"
        }
      },
      "xunit.abstractions/2.0.3": {
        "runtime": {
          "lib/netstandard2.0/xunit.abstractions.dll": {
            "assemblyVersion": "2.0.0.0",
            "fileVersion": "0.0.0.0"
          }
        }
      },
      "xunit.analyzers/0.10.0": {},
      "xunit.assert/2.4.1": {
        "dependencies": {
          "NETStandard.Library": "1.6.1"
        },
        "runtime": {
          "lib/netstandard1.1/xunit.assert.dll": {
            "assemblyVersion": "2.4.1.0",
            "fileVersion": "2.4.1.0"
          }
        }
      },
      "xunit.core/2.4.1": {
        "dependencies": {
          "xunit.extensibility.core": "2.4.1",
          "xunit.extensibility.execution": "2.4.1"
        }
      },
      "xunit.extensibility.core/2.4.1": {
        "dependencies": {
          "NETStandard.Library": "1.6.1",
          "xunit.abstractions": "2.0.3"
        },
        "runtime": {
          "lib/netstandard1.1/xunit.core.dll": {
            "assemblyVersion": "2.4.1.0",
            "fileVersion": "2.4.1.0"
          }
        }
      },
      "xunit.extensibility.execution/2.4.1": {
        "dependencies": {
          "NETStandard.Library": "1.6.1",
          "xunit.extensibility.core": "2.4.1"
        },
        "runtime": {
          "lib/netstandard1.1/xunit.execution.dotnet.dll": {
            "assemblyVersion": "2.4.1.0",
            "fileVersion": "2.4.1.0"
          }
        }
      },
      "xunit.runner.visualstudio/2.4.1": {
        "dependencies": {
          "Microsoft.NET.Test.Sdk": "15.7.2"
        }
      },
      "Microsoft.Coyote/1.0.5": {
        "dependencies": {
          "System.Threading.Tasks.Extensions": "4.5.2"
        },
        "runtime": {
          "Microsoft.Coyote.dll": {}
        }
      },
      "Microsoft.Coyote.Tests.Common/1.0.5": {
        "dependencies": {
          "Microsoft.Coyote": "1.0.5",
          "xunit": "2.4.1"
        },
        "runtime": {
          "Microsoft.Coyote.Tests.Common.dll": {}
        }
      }
    }
  },
  "libraries": {
    "Microsoft.Coyote.Production.Tests/1.0.5": {
      "type": "project",
      "serviceable": false,
      "sha512": ""
    },
    "Microsoft.CodeAnalysis.FxCopAnalyzers/2.9.1": {
      "type": "package",
      "serviceable": true,
      "sha512": "sha512-tnJafOyqJbrEUcnQn3D57+vnzOuJPz7BijKMcBMY9pS8K757HD70F9gOsPpeKf/frx7BFmhV2tbrnEKieKqPrA==",
      "path": "microsoft.codeanalysis.fxcopanalyzers/2.9.1",
      "hashPath": "microsoft.codeanalysis.fxcopanalyzers.2.9.1.nupkg.sha512"
    },
    "Microsoft.CodeAnalysis.VersionCheckAnalyzer/2.9.1": {
      "type": "package",
      "serviceable": true,
      "sha512": "sha512-XS9PHyJbPEg+3Q/RsKVS2KtfBwRB3GWdemj0MuD5l1atbmXlWUDQuytalcdc1OH6COY9rleMLHwJM+ajtVx7Rg==",
      "path": "microsoft.codeanalysis.versioncheckanalyzer/2.9.1",
      "hashPath": "microsoft.codeanalysis.versioncheckanalyzer.2.9.1.nupkg.sha512"
    },
    "Microsoft.CodeCoverage/1.0.3": {
      "type": "package",
      "serviceable": true,
      "sha512": "sha512-5KfX12XPfvBomjrZv9nCBfQ6lhZdroVxXvGnY6MqzG83bjqdq6SQ3xxJFdPgHv6oli83M9oNhZlynYehjmboUg==",
      "path": "microsoft.codecoverage/1.0.3",
      "hashPath": "microsoft.codecoverage.1.0.3.nupkg.sha512"
    },
    "Microsoft.CodeQuality.Analyzers/2.9.1": {
      "type": "package",
      "serviceable": true,
      "sha512": "sha512-bv1El69gzisTdOtiDh5YM2GCssgObnm6gXcUyokJbMP2Ly3Ix4iC3KyH0jAiSYDnoFKRQ04T2ly4pc3rO2JtKg==",
      "path": "microsoft.codequality.analyzers/2.9.1",
      "hashPath": "microsoft.codequality.analyzers.2.9.1.nupkg.sha512"
    },
    "Microsoft.CSharp/4.0.1": {
      "type": "package",
      "serviceable": true,
      "sha512": "sha512-17h8b5mXa87XYKrrVqdgZ38JefSUqLChUQpXgSnpzsM0nDOhE40FTeNWOJ/YmySGV6tG6T8+hjz6vxbknHJr6A==",
      "path": "microsoft.csharp/4.0.1",
      "hashPath": "microsoft.csharp.4.0.1.nupkg.sha512"
    },
    "Microsoft.DotNet.PlatformAbstractions/1.0.3": {
      "type": "package",
      "serviceable": true,
      "sha512": "sha512-rF92Gp5L2asYrFNf0cKNBxzzGLh1krHuj6TRDk9wdjN2qdvJLaNYOn1s9oYkMlptYX436KiEFqxhLB+I5veXvQ==",
      "path": "microsoft.dotnet.platformabstractions/1.0.3",
      "hashPath": "microsoft.dotnet.platformabstractions.1.0.3.nupkg.sha512"
    },
    "Microsoft.Extensions.DependencyModel/1.0.3": {
      "type": "package",
      "serviceable": true,
      "sha512": "sha512-Z3o19EnheuegmvgpCzwoSlnCWxYA6qIUhvKJ7ifKHHvU7U+oYR/gliLiL3LVYOOeGMEEzkpJ5W67sOcXizGtlw==",
      "path": "microsoft.extensions.dependencymodel/1.0.3",
      "hashPath": "microsoft.extensions.dependencymodel.1.0.3.nupkg.sha512"
    },
    "Microsoft.NET.Test.Sdk/15.7.2": {
      "type": "package",
      "serviceable": true,
      "sha512": "sha512-pHY/G48QeT7HVtOW/D7++OgKQ/PSpAJjGlWZORVgrPDxgQh03EjG28+mdFpSV9drlcAup7YyTgXJtwAcaSwjNQ==",
      "path": "microsoft.net.test.sdk/15.7.2",
      "hashPath": "microsoft.net.test.sdk.15.7.2.nupkg.sha512"
    },
    "Microsoft.NetCore.Analyzers/2.9.1": {
      "type": "package",
      "serviceable": true,
      "sha512": "sha512-oQ1VZI5pS21Mtiw0D5dskpF+TXiBKhZkivKsxcizDjvQP9Y+ZE7JKpNXVSejjhvHCkU1g3FBz8ni9oCX1VxNmw==",
      "path": "microsoft.netcore.analyzers/2.9.1",
      "hashPath": "microsoft.netcore.analyzers.2.9.1.nupkg.sha512"
    },
    "Microsoft.NETCore.Platforms/1.1.0": {
      "type": "package",
      "serviceable": true,
      "sha512": "sha512-kz0PEW2lhqygehI/d6XsPCQzD7ff7gUJaVGPVETX611eadGsA3A877GdSlU0LRVMCTH/+P3o2iDTak+S08V2+A==",
      "path": "microsoft.netcore.platforms/1.1.0",
      "hashPath": "microsoft.netcore.platforms.1.1.0.nupkg.sha512"
    },
    "Microsoft.NETCore.Targets/1.1.0": {
      "type": "package",
      "serviceable": true,
      "sha512": "sha512-aOZA3BWfz9RXjpzt0sRJJMjAscAUm3Hoa4UWAfceV9UTYxgwZ1lZt5nO2myFf+/jetYQo4uTP7zS8sJY67BBxg==",
      "path": "microsoft.netcore.targets/1.1.0",
      "hashPath": "microsoft.netcore.targets.1.1.0.nupkg.sha512"
    },
    "Microsoft.NetFramework.Analyzers/2.9.1": {
      "type": "package",
      "serviceable": true,
      "sha512": "sha512-A20Gda5IcyKhirHVqpvBFG2KzUP3usBSCkX5BIirEbr/pD6VQdlAz8NpY84zHOwdzG+pUkpc9V/hTNbOOFz93Q==",
      "path": "microsoft.netframework.analyzers/2.9.1",
      "hashPath": "microsoft.netframework.analyzers.2.9.1.nupkg.sha512"
    },
    "Microsoft.TestPlatform.ObjectModel/15.7.2": {
      "type": "package",
      "serviceable": true,
      "sha512": "sha512-BQHdXGO6X1VhKYvdl3bt3BtMNujiyaLKDhJyHp6v65At/9QD38z1HuudKpt0c7z6/AQC0uXK/mEVXkOPcTCHvw==",
      "path": "microsoft.testplatform.objectmodel/15.7.2",
      "hashPath": "microsoft.testplatform.objectmodel.15.7.2.nupkg.sha512"
    },
    "Microsoft.TestPlatform.TestHost/15.7.2": {
      "type": "package",
      "serviceable": true,
      "sha512": "sha512-uIWtVXKyfeLrkJbqyTLssh2Zj9pWIpAdgPLqQUL9YtBdjefl7lDz7SGWN2Okto4+hYUE3DcobTkVxCSD2+/f2A==",
      "path": "microsoft.testplatform.testhost/15.7.2",
      "hashPath": "microsoft.testplatform.testhost.15.7.2.nupkg.sha512"
    },
    "Microsoft.Win32.Primitives/4.3.0": {
      "type": "package",
      "serviceable": true,
      "sha512": "sha512-9ZQKCWxH7Ijp9BfahvL2Zyf1cJIk8XYLF6Yjzr2yi0b2cOut/HQ31qf1ThHAgCc3WiZMdnWcfJCgN82/0UunxA==",
      "path": "microsoft.win32.primitives/4.3.0",
      "hashPath": "microsoft.win32.primitives.4.3.0.nupkg.sha512"
    },
    "Microsoft.Win32.Registry/4.0.0": {
      "type": "package",
      "serviceable": true,
      "sha512": "sha512-q+eLtROUAQ3OxYA5mpQrgyFgzLQxIyrfT2eLpYX5IEPlHmIio2nh4F5bgOaQoGOV865kFKZZso9Oq9RlazvXtg==",
      "path": "microsoft.win32.registry/4.0.0",
      "hashPath": "microsoft.win32.registry.4.0.0.nupkg.sha512"
    },
    "NETStandard.Library/1.6.1": {
      "type": "package",
      "serviceable": true,
      "sha512": "sha512-WcSp3+vP+yHNgS8EV5J7pZ9IRpeDuARBPN28by8zqff1wJQXm26PVU8L3/fYLBJVU7BtDyqNVWq2KlCVvSSR4A==",
      "path": "netstandard.library/1.6.1",
      "hashPath": "netstandard.library.1.6.1.nupkg.sha512"
    },
    "Newtonsoft.Json/9.0.1": {
      "type": "package",
      "serviceable": true,
      "sha512": "sha512-U82mHQSKaIk+lpSVCbWYKNavmNH1i5xrExDEquU1i6I5pV6UMOqRnJRSlKO3cMPfcpp0RgDY+8jUXHdQ4IfXvw==",
      "path": "newtonsoft.json/9.0.1",
      "hashPath": "newtonsoft.json.9.0.1.nupkg.sha512"
    },
    "runtime.debian.8-x64.runtime.native.System.Security.Cryptography.OpenSsl/4.3.0": {
      "type": "package",
      "serviceable": true,
      "sha512": "sha512-HdSSp5MnJSsg08KMfZThpuLPJpPwE5hBXvHwoKWosyHHfe8Mh5WKT0ylEOf6yNzX6Ngjxe4Whkafh5q7Ymac4Q==",
      "path": "runtime.debian.8-x64.runtime.native.system.security.cryptography.openssl/4.3.0",
      "hashPath": "runtime.debian.8-x64.runtime.native.system.security.cryptography.openssl.4.3.0.nupkg.sha512"
    },
    "runtime.fedora.23-x64.runtime.native.System.Security.Cryptography.OpenSsl/4.3.0": {
      "type": "package",
      "serviceable": true,
      "sha512": "sha512-+yH1a49wJMy8Zt4yx5RhJrxO/DBDByAiCzNwiETI+1S4mPdCu0OY4djdciC7Vssk0l22wQaDLrXxXkp+3+7bVA==",
      "path": "runtime.fedora.23-x64.runtime.native.system.security.cryptography.openssl/4.3.0",
      "hashPath": "runtime.fedora.23-x64.runtime.native.system.security.cryptography.openssl.4.3.0.nupkg.sha512"
    },
    "runtime.fedora.24-x64.runtime.native.System.Security.Cryptography.OpenSsl/4.3.0": {
      "type": "package",
      "serviceable": true,
      "sha512": "sha512-c3YNH1GQJbfIPJeCnr4avseugSqPrxwIqzthYyZDN6EuOyNOzq+y2KSUfRcXauya1sF4foESTgwM5e1A8arAKw==",
      "path": "runtime.fedora.24-x64.runtime.native.system.security.cryptography.openssl/4.3.0",
      "hashPath": "runtime.fedora.24-x64.runtime.native.system.security.cryptography.openssl.4.3.0.nupkg.sha512"
    },
    "runtime.native.System/4.3.0": {
      "type": "package",
      "serviceable": true,
      "sha512": "sha512-c/qWt2LieNZIj1jGnVNsE2Kl23Ya2aSTBuXMD6V7k9KWr6l16Tqdwq+hJScEpWER9753NWC8h96PaVNY5Ld7Jw==",
      "path": "runtime.native.system/4.3.0",
      "hashPath": "runtime.native.system.4.3.0.nupkg.sha512"
    },
    "runtime.native.System.IO.Compression/4.3.0": {
      "type": "package",
      "serviceable": true,
      "sha512": "sha512-INBPonS5QPEgn7naufQFXJEp3zX6L4bwHgJ/ZH78aBTpeNfQMtf7C6VrAFhlq2xxWBveIOWyFzQjJ8XzHMhdOQ==",
      "path": "runtime.native.system.io.compression/4.3.0",
      "hashPath": "runtime.native.system.io.compression.4.3.0.nupkg.sha512"
    },
    "runtime.native.System.Net.Http/4.3.0": {
      "type": "package",
      "serviceable": true,
      "sha512": "sha512-ZVuZJqnnegJhd2k/PtAbbIcZ3aZeITq3sj06oKfMBSfphW3HDmk/t4ObvbOk/JA/swGR0LNqMksAh/f7gpTROg==",
      "path": "runtime.native.system.net.http/4.3.0",
      "hashPath": "runtime.native.system.net.http.4.3.0.nupkg.sha512"
    },
    "runtime.native.System.Security.Cryptography.Apple/4.3.0": {
      "type": "package",
      "serviceable": true,
      "sha512": "sha512-DloMk88juo0OuOWr56QG7MNchmafTLYWvABy36izkrLI5VledI0rq28KGs1i9wbpeT9NPQrx/wTf8U2vazqQ3Q==",
      "path": "runtime.native.system.security.cryptography.apple/4.3.0",
      "hashPath": "runtime.native.system.security.cryptography.apple.4.3.0.nupkg.sha512"
    },
    "runtime.native.System.Security.Cryptography.OpenSsl/4.3.0": {
      "type": "package",
      "serviceable": true,
      "sha512": "sha512-NS1U+700m4KFRHR5o4vo9DSlTmlCKu/u7dtE5sUHVIPB+xpXxYQvgBgA6wEIeCz6Yfn0Z52/72WYsToCEPJnrw==",
      "path": "runtime.native.system.security.cryptography.openssl/4.3.0",
      "hashPath": "runtime.native.system.security.cryptography.openssl.4.3.0.nupkg.sha512"
    },
    "runtime.opensuse.13.2-x64.runtime.native.System.Security.Cryptography.OpenSsl/4.3.0": {
      "type": "package",
      "serviceable": true,
      "sha512": "sha512-b3pthNgxxFcD+Pc0WSEoC0+md3MyhRS6aCEeenvNE3Fdw1HyJ18ZhRFVJJzIeR/O/jpxPboB805Ho0T3Ul7w8A==",
      "path": "runtime.opensuse.13.2-x64.runtime.native.system.security.cryptography.openssl/4.3.0",
      "hashPath": "runtime.opensuse.13.2-x64.runtime.native.system.security.cryptography.openssl.4.3.0.nupkg.sha512"
    },
    "runtime.opensuse.42.1-x64.runtime.native.System.Security.Cryptography.OpenSsl/4.3.0": {
      "type": "package",
      "serviceable": true,
      "sha512": "sha512-KeLz4HClKf+nFS7p/6Fi/CqyLXh81FpiGzcmuS8DGi9lUqSnZ6Es23/gv2O+1XVGfrbNmviF7CckBpavkBoIFQ==",
      "path": "runtime.opensuse.42.1-x64.runtime.native.system.security.cryptography.openssl/4.3.0",
      "hashPath": "runtime.opensuse.42.1-x64.runtime.native.system.security.cryptography.openssl.4.3.0.nupkg.sha512"
    },
    "runtime.osx.10.10-x64.runtime.native.System.Security.Cryptography.Apple/4.3.0": {
      "type": "package",
      "serviceable": true,
      "sha512": "sha512-kVXCuMTrTlxq4XOOMAysuNwsXWpYeboGddNGpIgNSZmv1b6r/s/DPk0fYMB7Q5Qo4bY68o48jt4T4y5BVecbCQ==",
      "path": "runtime.osx.10.10-x64.runtime.native.system.security.cryptography.apple/4.3.0",
      "hashPath": "runtime.osx.10.10-x64.runtime.native.system.security.cryptography.apple.4.3.0.nupkg.sha512"
    },
    "runtime.osx.10.10-x64.runtime.native.System.Security.Cryptography.OpenSsl/4.3.0": {
      "type": "package",
      "serviceable": true,
      "sha512": "sha512-X7IdhILzr4ROXd8mI1BUCQMSHSQwelUlBjF1JyTKCjXaOGn2fB4EKBxQbCK2VjO3WaWIdlXZL3W6TiIVnrhX4g==",
      "path": "runtime.osx.10.10-x64.runtime.native.system.security.cryptography.openssl/4.3.0",
      "hashPath": "runtime.osx.10.10-x64.runtime.native.system.security.cryptography.openssl.4.3.0.nupkg.sha512"
    },
    "runtime.rhel.7-x64.runtime.native.System.Security.Cryptography.OpenSsl/4.3.0": {
      "type": "package",
      "serviceable": true,
      "sha512": "sha512-nyFNiCk/r+VOiIqreLix8yN+q3Wga9+SE8BCgkf+2BwEKiNx6DyvFjCgkfV743/grxv8jHJ8gUK4XEQw7yzRYg==",
      "path": "runtime.rhel.7-x64.runtime.native.system.security.cryptography.openssl/4.3.0",
      "hashPath": "runtime.rhel.7-x64.runtime.native.system.security.cryptography.openssl.4.3.0.nupkg.sha512"
    },
    "runtime.ubuntu.14.04-x64.runtime.native.System.Security.Cryptography.OpenSsl/4.3.0": {
      "type": "package",
      "serviceable": true,
      "sha512": "sha512-ytoewC6wGorL7KoCAvRfsgoJPJbNq+64k2SqW6JcOAebWsFUvCCYgfzQMrnpvPiEl4OrblUlhF2ji+Q1+SVLrQ==",
      "path": "runtime.ubuntu.14.04-x64.runtime.native.system.security.cryptography.openssl/4.3.0",
      "hashPath": "runtime.ubuntu.14.04-x64.runtime.native.system.security.cryptography.openssl.4.3.0.nupkg.sha512"
    },
    "runtime.ubuntu.16.04-x64.runtime.native.System.Security.Cryptography.OpenSsl/4.3.0": {
      "type": "package",
      "serviceable": true,
      "sha512": "sha512-I8bKw2I8k58Wx7fMKQJn2R8lamboCAiHfHeV/pS65ScKWMMI0+wJkLYlEKvgW1D/XvSl/221clBoR2q9QNNM7A==",
      "path": "runtime.ubuntu.16.04-x64.runtime.native.system.security.cryptography.openssl/4.3.0",
      "hashPath": "runtime.ubuntu.16.04-x64.runtime.native.system.security.cryptography.openssl.4.3.0.nupkg.sha512"
    },
    "runtime.ubuntu.16.10-x64.runtime.native.System.Security.Cryptography.OpenSsl/4.3.0": {
      "type": "package",
      "serviceable": true,
      "sha512": "sha512-VB5cn/7OzUfzdnC8tqAIMQciVLiq2epm2NrAm1E9OjNRyG4lVhfR61SMcLizejzQP8R8Uf/0l5qOIbUEi+RdEg==",
      "path": "runtime.ubuntu.16.10-x64.runtime.native.system.security.cryptography.openssl/4.3.0",
      "hashPath": "runtime.ubuntu.16.10-x64.runtime.native.system.security.cryptography.openssl.4.3.0.nupkg.sha512"
    },
    "StyleCop.Analyzers/1.0.2": {
      "type": "package",
      "serviceable": true,
      "sha512": "sha512-3xD87lafnVhsSEtJKk50G7FGutvaXkFz4XrrLrxnk/DhZU42dnCGWUsvKuBv4mTS0XdIgTY88tLhxW/8Vi3Pow==",
      "path": "stylecop.analyzers/1.0.2",
      "hashPath": "stylecop.analyzers.1.0.2.nupkg.sha512"
    },
    "System.AppContext/4.3.0": {
      "type": "package",
      "serviceable": true,
      "sha512": "sha512-fKC+rmaLfeIzUhagxY17Q9siv/sPrjjKcfNg1Ic8IlQkZLipo8ljcaZQu4VtI4Jqbzjc2VTjzGLF6WmsRXAEgA==",
      "path": "system.appcontext/4.3.0",
      "hashPath": "system.appcontext.4.3.0.nupkg.sha512"
    },
    "System.Buffers/4.3.0": {
      "type": "package",
      "serviceable": true,
      "sha512": "sha512-ratu44uTIHgeBeI0dE8DWvmXVBSo4u7ozRZZHOMmK/JPpYyo0dAfgSiHlpiObMQ5lEtEyIXA40sKRYg5J6A8uQ==",
      "path": "system.buffers/4.3.0",
      "hashPath": "system.buffers.4.3.0.nupkg.sha512"
    },
    "System.Collections/4.3.0": {
      "type": "package",
      "serviceable": true,
      "sha512": "sha512-3Dcj85/TBdVpL5Zr+gEEBUuFe2icOnLalmEh9hfck1PTYbbyWuZgh4fmm2ysCLTrqLQw6t3TgTyJ+VLp+Qb+Lw==",
      "path": "system.collections/4.3.0",
      "hashPath": "system.collections.4.3.0.nupkg.sha512"
    },
    "System.Collections.Concurrent/4.3.0": {
      "type": "package",
      "serviceable": true,
      "sha512": "sha512-ztl69Xp0Y/UXCL+3v3tEU+lIy+bvjKNUmopn1wep/a291pVPK7dxBd6T7WnlQqRog+d1a/hSsgRsmFnIBKTPLQ==",
      "path": "system.collections.concurrent/4.3.0",
      "hashPath": "system.collections.concurrent.4.3.0.nupkg.sha512"
    },
    "System.Collections.Immutable/1.2.0": {
      "type": "package",
      "serviceable": true,
      "sha512": "sha512-Cma8cBW6di16ZLibL8LYQ+cLjGzoKxpOTu/faZfDcx94ZjAGq6Nv5RO7+T1YZXqEXTZP9rt1wLVEONVpURtUqw==",
      "path": "system.collections.immutable/1.2.0",
      "hashPath": "system.collections.immutable.1.2.0.nupkg.sha512"
    },
    "System.Collections.NonGeneric/4.0.1": {
      "type": "package",
      "serviceable": true,
      "sha512": "sha512-hMxFT2RhhlffyCdKLDXjx8WEC5JfCvNozAZxCablAuFRH74SCV4AgzE8yJCh/73bFnEoZgJ9MJmkjQ0dJmnKqA==",
      "path": "system.collections.nongeneric/4.0.1",
      "hashPath": "system.collections.nongeneric.4.0.1.nupkg.sha512"
    },
    "System.Collections.Specialized/4.0.1": {
      "type": "package",
      "serviceable": true,
      "sha512": "sha512-/HKQyVP0yH1I0YtK7KJL/28snxHNH/bi+0lgk/+MbURF6ULhAE31MDI+NZDerNWu264YbxklXCCygISgm+HMug==",
      "path": "system.collections.specialized/4.0.1",
      "hashPath": "system.collections.specialized.4.0.1.nupkg.sha512"
    },
    "System.ComponentModel/4.0.1": {
      "type": "package",
      "serviceable": true,
      "sha512": "sha512-oBZFnm7seFiVfugsIyOvQCWobNZs7FzqDV/B7tx20Ep/l3UUFCPDkdTnCNaJZTU27zjeODmy2C/cP60u3D4c9w==",
      "path": "system.componentmodel/4.0.1",
      "hashPath": "system.componentmodel.4.0.1.nupkg.sha512"
    },
    "System.ComponentModel.EventBasedAsync/4.0.11": {
      "type": "package",
      "serviceable": true,
      "sha512": "sha512-Z7SO6vvQIR84daPE4uhaNdef9CjgjDMGYkas8epUhf0U3WGuaGgZ0Mm4QuNycMdbHUY8KEdZrtgxonkAiJaAlA==",
      "path": "system.componentmodel.eventbasedasync/4.0.11",
      "hashPath": "system.componentmodel.eventbasedasync.4.0.11.nupkg.sha512"
    },
    "System.ComponentModel.Primitives/4.1.0": {
      "type": "package",
      "serviceable": true,
      "sha512": "sha512-sc/7eVCdxPrp3ljpgTKVaQGUXiW05phNWvtv/m2kocXqrUQvTVWKou1Edas2aDjTThLPZOxPYIGNb/HN0QjURg==",
      "path": "system.componentmodel.primitives/4.1.0",
      "hashPath": "system.componentmodel.primitives.4.1.0.nupkg.sha512"
    },
    "System.ComponentModel.TypeConverter/4.1.0": {
      "type": "package",
      "serviceable": true,
      "sha512": "sha512-MnDAlaeJZy9pdB5ZdOlwdxfpI+LJQ6e0hmH7d2+y2LkiD8DRJynyDYl4Xxf3fWFm7SbEwBZh4elcfzONQLOoQw==",
      "path": "system.componentmodel.typeconverter/4.1.0",
      "hashPath": "system.componentmodel.typeconverter.4.1.0.nupkg.sha512"
    },
    "System.Console/4.3.0": {
      "type": "package",
      "serviceable": true,
      "sha512": "sha512-DHDrIxiqk1h03m6khKWV2X8p/uvN79rgSqpilL6uzpmSfxfU5ng8VcPtW4qsDsQDHiTv6IPV9TmD5M/vElPNLg==",
      "path": "system.console/4.3.0",
      "hashPath": "system.console.4.3.0.nupkg.sha512"
    },
    "System.Diagnostics.Debug/4.3.0": {
      "type": "package",
      "serviceable": true,
      "sha512": "sha512-ZUhUOdqmaG5Jk3Xdb8xi5kIyQYAA4PnTNlHx1mu9ZY3qv4ELIdKbnL/akbGaKi2RnNUWaZsAs31rvzFdewTj2g==",
      "path": "system.diagnostics.debug/4.3.0",
      "hashPath": "system.diagnostics.debug.4.3.0.nupkg.sha512"
    },
    "System.Diagnostics.DiagnosticSource/4.3.0": {
      "type": "package",
      "serviceable": true,
      "sha512": "sha512-tD6kosZnTAGdrEa0tZSuFyunMbt/5KYDnHdndJYGqZoNy00XVXyACd5d6KnE1YgYv3ne2CjtAfNXo/fwEhnKUA==",
      "path": "system.diagnostics.diagnosticsource/4.3.0",
      "hashPath": "system.diagnostics.diagnosticsource.4.3.0.nupkg.sha512"
    },
    "System.Diagnostics.Process/4.1.0": {
      "type": "package",
      "serviceable": true,
      "sha512": "sha512-mpVZ5bnlSs3tTeJ6jYyDJEIa6tavhAd88lxq1zbYhkkCu0Pno2+gHXcvZcoygq2d8JxW3gojXqNJMTAshduqZA==",
      "path": "system.diagnostics.process/4.1.0",
      "hashPath": "system.diagnostics.process.4.1.0.nupkg.sha512"
    },
    "System.Diagnostics.TextWriterTraceListener/4.0.0": {
      "type": "package",
      "serviceable": true,
      "sha512": "sha512-w36Dr8yKy8xP150qPANe7Td+/zOI3G62ImRcHDIEW+oUXUuTKZHd4DHmqRx5+x8RXd85v3tXd1uhNTfsr+yxjA==",
      "path": "system.diagnostics.textwritertracelistener/4.0.0",
      "hashPath": "system.diagnostics.textwritertracelistener.4.0.0.nupkg.sha512"
    },
    "System.Diagnostics.Tools/4.3.0": {
      "type": "package",
      "serviceable": true,
      "sha512": "sha512-UUvkJfSYJMM6x527dJg2VyWPSRqIVB0Z7dbjHst1zmwTXz5CcXSYJFWRpuigfbO1Lf7yfZiIaEUesfnl/g5EyA==",
      "path": "system.diagnostics.tools/4.3.0",
      "hashPath": "system.diagnostics.tools.4.3.0.nupkg.sha512"
    },
    "System.Diagnostics.TraceSource/4.0.0": {
      "type": "package",
      "serviceable": true,
      "sha512": "sha512-6WVCczFZKXwpWpzd/iJkYnsmWTSFFiU24Xx/YdHXBcu+nFI/ehTgeqdJQFbtRPzbrO3KtRNjvkhtj4t5/WwWsA==",
      "path": "system.diagnostics.tracesource/4.0.0",
      "hashPath": "system.diagnostics.tracesource.4.0.0.nupkg.sha512"
    },
    "System.Diagnostics.Tracing/4.3.0": {
      "type": "package",
      "serviceable": true,
      "sha512": "sha512-rswfv0f/Cqkh78rA5S8eN8Neocz234+emGCtTF3lxPY96F+mmmUen6tbn0glN6PMvlKQb9bPAY5e9u7fgPTkKw==",
      "path": "system.diagnostics.tracing/4.3.0",
      "hashPath": "system.diagnostics.tracing.4.3.0.nupkg.sha512"
    },
    "System.Dynamic.Runtime/4.0.11": {
      "type": "package",
      "serviceable": true,
      "sha512": "sha512-db34f6LHYM0U0JpE+sOmjar27BnqTVkbLJhgfwMpTdgTigG/Hna3m2MYVwnFzGGKnEJk2UXFuoVTr8WUbU91/A==",
      "path": "system.dynamic.runtime/4.0.11",
      "hashPath": "system.dynamic.runtime.4.0.11.nupkg.sha512"
    },
    "System.Globalization/4.3.0": {
      "type": "package",
      "serviceable": true,
      "sha512": "sha512-kYdVd2f2PAdFGblzFswE4hkNANJBKRmsfa2X5LG2AcWE1c7/4t0pYae1L8vfZ5xvE2nK/R9JprtToA61OSHWIg==",
      "path": "system.globalization/4.3.0",
      "hashPath": "system.globalization.4.3.0.nupkg.sha512"
    },
    "System.Globalization.Calendars/4.3.0": {
      "type": "package",
      "serviceable": true,
      "sha512": "sha512-GUlBtdOWT4LTV3I+9/PJW+56AnnChTaOqqTLFtdmype/L500M2LIyXgmtd9X2P2VOkmJd5c67H5SaC2QcL1bFA==",
      "path": "system.globalization.calendars/4.3.0",
      "hashPath": "system.globalization.calendars.4.3.0.nupkg.sha512"
    },
    "System.Globalization.Extensions/4.3.0": {
      "type": "package",
      "serviceable": true,
      "sha512": "sha512-FhKmdR6MPG+pxow6wGtNAWdZh7noIOpdD5TwQ3CprzgIE1bBBoim0vbR1+AWsWjQmU7zXHgQo4TWSP6lCeiWcQ==",
      "path": "system.globalization.extensions/4.3.0",
      "hashPath": "system.globalization.extensions.4.3.0.nupkg.sha512"
    },
    "System.IO/4.3.0": {
      "type": "package",
      "serviceable": true,
      "sha512": "sha512-3qjaHvxQPDpSOYICjUoTsmoq5u6QJAFRUITgeT/4gqkF1bajbSmb1kwSxEA8AHlofqgcKJcM8udgieRNhaJ5Cg==",
      "path": "system.io/4.3.0",
      "hashPath": "system.io.4.3.0.nupkg.sha512"
    },
    "System.IO.Compression/4.3.0": {
      "type": "package",
      "serviceable": true,
      "sha512": "sha512-YHndyoiV90iu4iKG115ibkhrG+S3jBm8Ap9OwoUAzO5oPDAWcr0SFwQFm0HjM8WkEZWo0zvLTyLmbvTkW1bXgg==",
      "path": "system.io.compression/4.3.0",
      "hashPath": "system.io.compression.4.3.0.nupkg.sha512"
    },
    "System.IO.Compression.ZipFile/4.3.0": {
      "type": "package",
      "serviceable": true,
      "sha512": "sha512-G4HwjEsgIwy3JFBduZ9quBkAu+eUwjIdJleuNSgmUojbH6O3mlvEIme+GHx/cLlTAPcrnnL7GqvB9pTlWRfhOg==",
      "path": "system.io.compression.zipfile/4.3.0",
      "hashPath": "system.io.compression.zipfile.4.3.0.nupkg.sha512"
    },
    "System.IO.FileSystem/4.3.0": {
      "type": "package",
      "serviceable": true,
      "sha512": "sha512-3wEMARTnuio+ulnvi+hkRNROYwa1kylvYahhcLk4HSoVdl+xxTFVeVlYOfLwrDPImGls0mDqbMhrza8qnWPTdA==",
      "path": "system.io.filesystem/4.3.0",
      "hashPath": "system.io.filesystem.4.3.0.nupkg.sha512"
    },
    "System.IO.FileSystem.Primitives/4.3.0": {
      "type": "package",
      "serviceable": true,
      "sha512": "sha512-6QOb2XFLch7bEc4lIcJH49nJN2HV+OC3fHDgsLVsBVBk3Y4hFAnOBGzJ2lUu7CyDDFo9IBWkSsnbkT6IBwwiMw==",
      "path": "system.io.filesystem.primitives/4.3.0",
      "hashPath": "system.io.filesystem.primitives.4.3.0.nupkg.sha512"
    },
    "System.Linq/4.3.0": {
      "type": "package",
      "serviceable": true,
      "sha512": "sha512-5DbqIUpsDp0dFftytzuMmc0oeMdQwjcP/EWxsksIz/w1TcFRkZ3yKKz0PqiYFMmEwPSWw+qNVqD7PJ889JzHbw==",
      "path": "system.linq/4.3.0",
      "hashPath": "system.linq.4.3.0.nupkg.sha512"
    },
    "System.Linq.Expressions/4.3.0": {
      "type": "package",
      "serviceable": true,
      "sha512": "sha512-PGKkrd2khG4CnlyJwxwwaWWiSiWFNBGlgXvJpeO0xCXrZ89ODrQ6tjEWS/kOqZ8GwEOUATtKtzp1eRgmYNfclg==",
      "path": "system.linq.expressions/4.3.0",
      "hashPath": "system.linq.expressions.4.3.0.nupkg.sha512"
    },
    "System.Net.Http/4.3.0": {
      "type": "package",
      "serviceable": true,
      "sha512": "sha512-sYg+FtILtRQuYWSIAuNOELwVuVsxVyJGWQyOnlAzhV4xvhyFnON1bAzYYC+jjRW8JREM45R0R5Dgi8MTC5sEwA==",
      "path": "system.net.http/4.3.0",
      "hashPath": "system.net.http.4.3.0.nupkg.sha512"
    },
    "System.Net.Primitives/4.3.0": {
      "type": "package",
      "serviceable": true,
      "sha512": "sha512-qOu+hDwFwoZPbzPvwut2qATe3ygjeQBDQj91xlsaqGFQUI5i4ZnZb8yyQuLGpDGivEPIt8EJkd1BVzVoP31FXA==",
      "path": "system.net.primitives/4.3.0",
      "hashPath": "system.net.primitives.4.3.0.nupkg.sha512"
    },
    "System.Net.Sockets/4.3.0": {
      "type": "package",
      "serviceable": true,
      "sha512": "sha512-m6icV6TqQOAdgt5N/9I5KNpjom/5NFtkmGseEH+AK/hny8XrytLH3+b5M8zL/Ycg3fhIocFpUMyl/wpFnVRvdw==",
      "path": "system.net.sockets/4.3.0",
      "hashPath": "system.net.sockets.4.3.0.nupkg.sha512"
    },
    "System.ObjectModel/4.3.0": {
      "type": "package",
      "serviceable": true,
      "sha512": "sha512-bdX+80eKv9bN6K4N+d77OankKHGn6CH711a6fcOpMQu2Fckp/Ft4L/kW9WznHpyR0NRAvJutzOMHNNlBGvxQzQ==",
      "path": "system.objectmodel/4.3.0",
      "hashPath": "system.objectmodel.4.3.0.nupkg.sha512"
    },
    "System.Private.DataContractSerialization/4.1.1": {
      "type": "package",
      "serviceable": true,
      "sha512": "sha512-lcqFBUaCZxPiUkA4dlSOoPZGtZsAuuElH2XHgLwGLxd7ZozWetV5yiz0qGAV2AUYOqw97MtZBjbLMN16Xz4vXA==",
      "path": "system.private.datacontractserialization/4.1.1",
      "hashPath": "system.private.datacontractserialization.4.1.1.nupkg.sha512"
    },
    "System.Reflection/4.3.0": {
      "type": "package",
      "serviceable": true,
      "sha512": "sha512-KMiAFoW7MfJGa9nDFNcfu+FpEdiHpWgTcS2HdMpDvt9saK3y/G4GwprPyzqjFH9NTaGPQeWNHU+iDlDILj96aQ==",
      "path": "system.reflection/4.3.0",
      "hashPath": "system.reflection.4.3.0.nupkg.sha512"
    },
    "System.Reflection.Emit/4.3.0": {
      "type": "package",
      "serviceable": true,
      "sha512": "sha512-228FG0jLcIwTVJyz8CLFKueVqQK36ANazUManGaJHkO0icjiIypKW7YLWLIWahyIkdh5M7mV2dJepllLyA1SKg==",
      "path": "system.reflection.emit/4.3.0",
      "hashPath": "system.reflection.emit.4.3.0.nupkg.sha512"
    },
    "System.Reflection.Emit.ILGeneration/4.3.0": {
      "type": "package",
      "serviceable": true,
      "sha512": "sha512-59tBslAk9733NXLrUJrwNZEzbMAcu8k344OYo+wfSVygcgZ9lgBdGIzH/nrg3LYhXceynyvTc8t5/GD4Ri0/ng==",
      "path": "system.reflection.emit.ilgeneration/4.3.0",
      "hashPath": "system.reflection.emit.ilgeneration.4.3.0.nupkg.sha512"
    },
    "System.Reflection.Emit.Lightweight/4.3.0": {
      "type": "package",
      "serviceable": true,
      "sha512": "sha512-oadVHGSMsTmZsAF864QYN1t1QzZjIcuKU3l2S9cZOwDdDueNTrqq1yRj7koFfIGEnKpt6NjpL3rOzRhs4ryOgA==",
      "path": "system.reflection.emit.lightweight/4.3.0",
      "hashPath": "system.reflection.emit.lightweight.4.3.0.nupkg.sha512"
    },
    "System.Reflection.Extensions/4.3.0": {
      "type": "package",
      "serviceable": true,
      "sha512": "sha512-rJkrJD3kBI5B712aRu4DpSIiHRtr6QlfZSQsb0hYHrDCZORXCFjQfoipo2LaMUHoT9i1B7j7MnfaEKWDFmFQNQ==",
      "path": "system.reflection.extensions/4.3.0",
      "hashPath": "system.reflection.extensions.4.3.0.nupkg.sha512"
    },
    "System.Reflection.Metadata/1.3.0": {
      "type": "package",
      "serviceable": true,
      "sha512": "sha512-jMSCxA4LSyKBGRDm/WtfkO03FkcgRzHxwvQRib1bm2GZ8ifKM1MX1al6breGCEQK280mdl9uQS7JNPXRYk90jw==",
      "path": "system.reflection.metadata/1.3.0",
      "hashPath": "system.reflection.metadata.1.3.0.nupkg.sha512"
    },
    "System.Reflection.Primitives/4.3.0": {
      "type": "package",
      "serviceable": true,
      "sha512": "sha512-5RXItQz5As4xN2/YUDxdpsEkMhvw3e6aNveFXUn4Hl/udNTCNhnKp8lT9fnc3MhvGKh1baak5CovpuQUXHAlIA==",
      "path": "system.reflection.primitives/4.3.0",
      "hashPath": "system.reflection.primitives.4.3.0.nupkg.sha512"
    },
    "System.Reflection.TypeExtensions/4.3.0": {
      "type": "package",
      "serviceable": true,
      "sha512": "sha512-7u6ulLcZbyxB5Gq0nMkQttcdBTx57ibzw+4IOXEfR+sXYQoHvjW5LTLyNr8O22UIMrqYbchJQJnos4eooYzYJA==",
      "path": "system.reflection.typeextensions/4.3.0",
      "hashPath": "system.reflection.typeextensions.4.3.0.nupkg.sha512"
    },
    "System.Resources.ResourceManager/4.3.0": {
      "type": "package",
      "serviceable": true,
      "sha512": "sha512-/zrcPkkWdZmI4F92gL/TPumP98AVDu/Wxr3CSJGQQ+XN6wbRZcyfSKVoPo17ilb3iOr0cCRqJInGwNMolqhS8A==",
      "path": "system.resources.resourcemanager/4.3.0",
      "hashPath": "system.resources.resourcemanager.4.3.0.nupkg.sha512"
    },
    "System.Runtime/4.3.0": {
      "type": "package",
      "serviceable": true,
      "sha512": "sha512-JufQi0vPQ0xGnAczR13AUFglDyVYt4Kqnz1AZaiKZ5+GICq0/1MH/mO/eAJHt/mHW1zjKBJd7kV26SrxddAhiw==",
      "path": "system.runtime/4.3.0",
      "hashPath": "system.runtime.4.3.0.nupkg.sha512"
    },
    "System.Runtime.Extensions/4.3.0": {
      "type": "package",
      "serviceable": true,
      "sha512": "sha512-guW0uK0fn5fcJJ1tJVXYd7/1h5F+pea1r7FLSOz/f8vPEqbR2ZAknuRDvTQ8PzAilDveOxNjSfr0CHfIQfFk8g==",
      "path": "system.runtime.extensions/4.3.0",
      "hashPath": "system.runtime.extensions.4.3.0.nupkg.sha512"
    },
    "System.Runtime.Handles/4.3.0": {
      "type": "package",
      "serviceable": true,
      "sha512": "sha512-OKiSUN7DmTWeYb3l51A7EYaeNMnvxwE249YtZz7yooT4gOZhmTjIn48KgSsw2k2lYdLgTKNJw/ZIfSElwDRVgg==",
      "path": "system.runtime.handles/4.3.0",
      "hashPath": "system.runtime.handles.4.3.0.nupkg.sha512"
    },
    "System.Runtime.InteropServices/4.3.0": {
      "type": "package",
      "serviceable": true,
      "sha512": "sha512-uv1ynXqiMK8mp1GM3jDqPCFN66eJ5w5XNomaK2XD+TuCroNTLFGeZ+WCmBMcBDyTFKou3P6cR6J/QsaqDp7fGQ==",
      "path": "system.runtime.interopservices/4.3.0",
      "hashPath": "system.runtime.interopservices.4.3.0.nupkg.sha512"
    },
    "System.Runtime.InteropServices.RuntimeInformation/4.3.0": {
      "type": "package",
      "serviceable": true,
      "sha512": "sha512-cbz4YJMqRDR7oLeMRbdYv7mYzc++17lNhScCX0goO2XpGWdvAt60CGN+FHdePUEHCe/Jy9jUlvNAiNdM+7jsOw==",
      "path": "system.runtime.interopservices.runtimeinformation/4.3.0",
      "hashPath": "system.runtime.interopservices.runtimeinformation.4.3.0.nupkg.sha512"
    },
    "System.Runtime.Loader/4.0.0": {
      "type": "package",
      "serviceable": true,
      "sha512": "sha512-4UN78GOVU/mbDFcXkEWtetJT/sJ0yic2gGk1HSlSpWI0TDf421xnrZTDZnwNBapk1GQeYN7U1lTj/aQB1by6ow==",
      "path": "system.runtime.loader/4.0.0",
      "hashPath": "system.runtime.loader.4.0.0.nupkg.sha512"
    },
    "System.Runtime.Numerics/4.3.0": {
      "type": "package",
      "serviceable": true,
      "sha512": "sha512-yMH+MfdzHjy17l2KESnPiF2dwq7T+xLnSJar7slyimAkUh/gTrS9/UQOtv7xarskJ2/XDSNvfLGOBQPjL7PaHQ==",
      "path": "system.runtime.numerics/4.3.0",
      "hashPath": "system.runtime.numerics.4.3.0.nupkg.sha512"
    },
    "System.Runtime.Serialization.Json/4.0.2": {
      "type": "package",
      "serviceable": true,
      "sha512": "sha512-+7DIJhnKYgCzUgcLbVTtRQb2l1M0FP549XFlFkQM5lmNiUBl44AfNbx4bz61xA8PzLtlYwfmif4JJJW7MPPnjg==",
      "path": "system.runtime.serialization.json/4.0.2",
      "hashPath": "system.runtime.serialization.json.4.0.2.nupkg.sha512"
    },
    "System.Runtime.Serialization.Primitives/4.1.1": {
      "type": "package",
      "serviceable": true,
      "sha512": "sha512-HZ6Du5QrTG8MNJbf4e4qMO3JRAkIboGT5Fk804uZtg3Gq516S7hAqTm2UZKUHa7/6HUGdVy3AqMQKbns06G/cg==",
      "path": "system.runtime.serialization.primitives/4.1.1",
      "hashPath": "system.runtime.serialization.primitives.4.1.1.nupkg.sha512"
    },
    "System.Security.Cryptography.Algorithms/4.3.0": {
      "type": "package",
      "serviceable": true,
      "sha512": "sha512-W1kd2Y8mYSCgc3ULTAZ0hOP2dSdG5YauTb1089T0/kRcN2MpSAW1izOFROrJgxSlMn3ArsgHXagigyi+ibhevg==",
      "path": "system.security.cryptography.algorithms/4.3.0",
      "hashPath": "system.security.cryptography.algorithms.4.3.0.nupkg.sha512"
    },
    "System.Security.Cryptography.Cng/4.3.0": {
      "type": "package",
      "serviceable": true,
      "sha512": "sha512-03idZOqFlsKRL4W+LuCpJ6dBYDUWReug6lZjBa3uJWnk5sPCUXckocevTaUA8iT/MFSrY/2HXkOt753xQ/cf8g==",
      "path": "system.security.cryptography.cng/4.3.0",
      "hashPath": "system.security.cryptography.cng.4.3.0.nupkg.sha512"
    },
    "System.Security.Cryptography.Csp/4.3.0": {
      "type": "package",
      "serviceable": true,
      "sha512": "sha512-X4s/FCkEUnRGnwR3aSfVIkldBmtURMhmexALNTwpjklzxWU7yjMk7GHLKOZTNkgnWnE0q7+BCf9N2LVRWxewaA==",
      "path": "system.security.cryptography.csp/4.3.0",
      "hashPath": "system.security.cryptography.csp.4.3.0.nupkg.sha512"
    },
    "System.Security.Cryptography.Encoding/4.3.0": {
      "type": "package",
      "serviceable": true,
      "sha512": "sha512-1DEWjZZly9ae9C79vFwqaO5kaOlI5q+3/55ohmq/7dpDyDfc8lYe7YVxJUZ5MF/NtbkRjwFRo14yM4OEo9EmDw==",
      "path": "system.security.cryptography.encoding/4.3.0",
      "hashPath": "system.security.cryptography.encoding.4.3.0.nupkg.sha512"
    },
    "System.Security.Cryptography.OpenSsl/4.3.0": {
      "type": "package",
      "serviceable": true,
      "sha512": "sha512-h4CEgOgv5PKVF/HwaHzJRiVboL2THYCou97zpmhjghx5frc7fIvlkY1jL+lnIQyChrJDMNEXS6r7byGif8Cy4w==",
      "path": "system.security.cryptography.openssl/4.3.0",
      "hashPath": "system.security.cryptography.openssl.4.3.0.nupkg.sha512"
    },
    "System.Security.Cryptography.Primitives/4.3.0": {
      "type": "package",
      "serviceable": true,
      "sha512": "sha512-7bDIyVFNL/xKeFHjhobUAQqSpJq9YTOpbEs6mR233Et01STBMXNAc/V+BM6dwYGc95gVh/Zf+iVXWzj3mE8DWg==",
      "path": "system.security.cryptography.primitives/4.3.0",
      "hashPath": "system.security.cryptography.primitives.4.3.0.nupkg.sha512"
    },
    "System.Security.Cryptography.X509Certificates/4.3.0": {
      "type": "package",
      "serviceable": true,
      "sha512": "sha512-t2Tmu6Y2NtJ2um0RtcuhP7ZdNNxXEgUm2JeoA/0NvlMjAhKCnM1NX07TDl3244mVp3QU6LPEhT3HTtH1uF7IYw==",
      "path": "system.security.cryptography.x509certificates/4.3.0",
      "hashPath": "system.security.cryptography.x509certificates.4.3.0.nupkg.sha512"
    },
    "System.Text.Encoding/4.3.0": {
      "type": "package",
      "serviceable": true,
      "sha512": "sha512-BiIg+KWaSDOITze6jGQynxg64naAPtqGHBwDrLaCtixsa5bKiR8dpPOHA7ge3C0JJQizJE+sfkz1wV+BAKAYZw==",
      "path": "system.text.encoding/4.3.0",
      "hashPath": "system.text.encoding.4.3.0.nupkg.sha512"
    },
    "System.Text.Encoding.Extensions/4.3.0": {
      "type": "package",
      "serviceable": true,
      "sha512": "sha512-YVMK0Bt/A43RmwizJoZ22ei2nmrhobgeiYwFzC4YAN+nue8RF6djXDMog0UCn+brerQoYVyaS+ghy9P/MUVcmw==",
      "path": "system.text.encoding.extensions/4.3.0",
      "hashPath": "system.text.encoding.extensions.4.3.0.nupkg.sha512"
    },
    "System.Text.RegularExpressions/4.3.0": {
      "type": "package",
      "serviceable": true,
      "sha512": "sha512-RpT2DA+L660cBt1FssIE9CAGpLFdFPuheB7pLpKpn6ZXNby7jDERe8Ua/Ne2xGiwLVG2JOqziiaVCGDon5sKFA==",
      "path": "system.text.regularexpressions/4.3.0",
      "hashPath": "system.text.regularexpressions.4.3.0.nupkg.sha512"
    },
    "System.Threading/4.3.0": {
      "type": "package",
      "serviceable": true,
      "sha512": "sha512-VkUS0kOBcUf3Wwm0TSbrevDDZ6BlM+b/HRiapRFWjM5O0NS0LviG0glKmFK+hhPDd1XFeSdU1GmlLhb2CoVpIw==",
      "path": "system.threading/4.3.0",
      "hashPath": "system.threading.4.3.0.nupkg.sha512"
    },
    "System.Threading.Tasks/4.3.0": {
      "type": "package",
      "serviceable": true,
      "sha512": "sha512-LbSxKEdOUhVe8BezB/9uOGGppt+nZf6e1VFyw6v3DN6lqitm0OSn2uXMOdtP0M3W4iMcqcivm2J6UgqiwwnXiA==",
      "path": "system.threading.tasks/4.3.0",
      "hashPath": "system.threading.tasks.4.3.0.nupkg.sha512"
    },
    "System.Threading.Tasks.Extensions/4.5.2": {
      "type": "package",
      "serviceable": true,
      "sha512": "sha512-BG/TNxDFv0svAzx8OiMXDlsHfGw623BZ8tCXw4YLhDFDvDhNUEV58jKYMGRnkbJNm7c3JNNJDiN7JBMzxRBR2w==",
      "path": "system.threading.tasks.extensions/4.5.2",
      "hashPath": "system.threading.tasks.extensions.4.5.2.nupkg.sha512"
    },
    "System.Threading.Thread/4.0.0": {
      "type": "package",
      "serviceable": true,
      "sha512": "sha512-gIdJqDXlOr5W9zeqFErLw3dsOsiShSCYtF9SEHitACycmvNvY8odf9kiKvp6V7aibc8C4HzzNBkWXjyfn7plbQ==",
      "path": "system.threading.thread/4.0.0",
      "hashPath": "system.threading.thread.4.0.0.nupkg.sha512"
    },
    "System.Threading.ThreadPool/4.0.10": {
      "type": "package",
      "serviceable": true,
      "sha512": "sha512-IMXgB5Vf/5Qw1kpoVgJMOvUO1l32aC+qC3OaIZjWJOjvcxuxNWOK2ZTWWYXfij22NHxT2j1yWX5vlAeQWld9vA==",
      "path": "system.threading.threadpool/4.0.10",
      "hashPath": "system.threading.threadpool.4.0.10.nupkg.sha512"
    },
    "System.Threading.Timer/4.3.0": {
      "type": "package",
      "serviceable": true,
      "sha512": "sha512-Z6YfyYTCg7lOZjJzBjONJTFKGN9/NIYKSxhU5GRd+DTwHSZyvWp1xuI5aR+dLg+ayyC5Xv57KiY4oJ0tMO89fQ==",
      "path": "system.threading.timer/4.3.0",
      "hashPath": "system.threading.timer.4.3.0.nupkg.sha512"
    },
    "System.Xml.ReaderWriter/4.3.0": {
      "type": "package",
      "serviceable": true,
      "sha512": "sha512-GrprA+Z0RUXaR4N7/eW71j1rgMnEnEVlgii49GZyAjTH7uliMnrOU3HNFBr6fEDBCJCIdlVNq9hHbaDR621XBA==",
      "path": "system.xml.readerwriter/4.3.0",
      "hashPath": "system.xml.readerwriter.4.3.0.nupkg.sha512"
    },
    "System.Xml.XDocument/4.3.0": {
      "type": "package",
      "serviceable": true,
      "sha512": "sha512-5zJ0XDxAIg8iy+t4aMnQAu0MqVbqyvfoUVl1yDV61xdo3Vth45oA2FoY4pPkxYAH5f8ixpmTqXeEIya95x0aCQ==",
      "path": "system.xml.xdocument/4.3.0",
      "hashPath": "system.xml.xdocument.4.3.0.nupkg.sha512"
    },
    "System.Xml.XmlDocument/4.0.1": {
      "type": "package",
      "serviceable": true,
      "sha512": "sha512-2eZu6IP+etFVBBFUFzw2w6J21DqIN5eL9Y8r8JfJWUmV28Z5P0SNU01oCisVHQgHsDhHPnmq2s1hJrJCFZWloQ==",
      "path": "system.xml.xmldocument/4.0.1",
      "hashPath": "system.xml.xmldocument.4.0.1.nupkg.sha512"
    },
    "System.Xml.XmlSerializer/4.0.11": {
      "type": "package",
      "serviceable": true,
      "sha512": "sha512-FrazwwqfIXTfq23mfv4zH+BjqkSFNaNFBtjzu3I9NRmG8EELYyrv/fJnttCIwRMFRR/YKXF1hmsMmMEnl55HGw==",
      "path": "system.xml.xmlserializer/4.0.11",
      "hashPath": "system.xml.xmlserializer.4.0.11.nupkg.sha512"
    },
    "System.Xml.XPath/4.0.1": {
      "type": "package",
      "serviceable": true,
      "sha512": "sha512-UWd1H+1IJ9Wlq5nognZ/XJdyj8qPE4XufBUkAW59ijsCPjZkZe0MUzKKJFBr+ZWBe5Wq1u1d5f2CYgE93uH7DA==",
      "path": "system.xml.xpath/4.0.1",
      "hashPath": "system.xml.xpath.4.0.1.nupkg.sha512"
    },
    "System.Xml.XPath.XmlDocument/4.0.1": {
      "type": "package",
      "serviceable": true,
      "sha512": "sha512-Zm2BdeanuncYs3NhCj4c9e1x3EXFzFBVv2wPEc/Dj4ZbI9R8ecLSR5frAsx4zJCPBtKQreQ7Q/KxJEohJZbfzA==",
      "path": "system.xml.xpath.xmldocument/4.0.1",
      "hashPath": "system.xml.xpath.xmldocument.4.0.1.nupkg.sha512"
    },
    "xunit/2.4.1": {
      "type": "package",
      "serviceable": true,
      "sha512": "sha512-XNR3Yz9QTtec16O0aKcO6+baVNpXmOnPUxDkCY97J+8krUYxPvXT1szYYEUdKk4sB8GOI2YbAjRIOm8ZnXRfzQ==",
      "path": "xunit/2.4.1",
      "hashPath": "xunit.2.4.1.nupkg.sha512"
    },
    "xunit.abstractions/2.0.3": {
      "type": "package",
      "serviceable": true,
      "sha512": "sha512-pot1I4YOxlWjIb5jmwvvQNbTrZ3lJQ+jUGkGjWE3hEFM0l5gOnBWS+H3qsex68s5cO52g+44vpGzhAt+42vwKg==",
      "path": "xunit.abstractions/2.0.3",
      "hashPath": "xunit.abstractions.2.0.3.nupkg.sha512"
    },
    "xunit.analyzers/0.10.0": {
      "type": "package",
      "serviceable": true,
      "sha512": "sha512-4/IDFCJfIeg6bix9apmUtIMwvOsiwqdEexeO/R2D4GReIGPLIRODTpId/l4LRSrAJk9lEO3Zx1H0Zx6uohJDNg==",
      "path": "xunit.analyzers/0.10.0",
      "hashPath": "xunit.analyzers.0.10.0.nupkg.sha512"
    },
    "xunit.assert/2.4.1": {
      "type": "package",
      "serviceable": true,
      "sha512": "sha512-O/Oe0BS5RmSsM+LQOb041TzuPo5MdH2Rov+qXGS37X+KFG1Hxz7kopYklM5+1Y+tRGeXrOx5+Xne1RuqLFQoyQ==",
      "path": "xunit.assert/2.4.1",
      "hashPath": "xunit.assert.2.4.1.nupkg.sha512"
    },
    "xunit.core/2.4.1": {
      "type": "package",
      "serviceable": true,
      "sha512": "sha512-Zsj5OMU6JasNGERXZy8s72+pcheG6Q15atS5XpZXqAtULuyQiQ6XNnUsp1gyfC6WgqScqMvySiEHmHcOG6Eg0Q==",
      "path": "xunit.core/2.4.1",
      "hashPath": "xunit.core.2.4.1.nupkg.sha512"
    },
    "xunit.extensibility.core/2.4.1": {
      "type": "package",
      "serviceable": true,
      "sha512": "sha512-yKZKm/8QNZnBnGZFD9SewkllHBiK0DThybQD/G4PiAmQjKtEZyHi6ET70QPU9KtSMJGRYS6Syk7EyR2EVDU4Kg==",
      "path": "xunit.extensibility.core/2.4.1",
      "hashPath": "xunit.extensibility.core.2.4.1.nupkg.sha512"
    },
    "xunit.extensibility.execution/2.4.1": {
      "type": "package",
      "serviceable": true,
      "sha512": "sha512-7e/1jqBpcb7frLkB6XDrHCGXAbKN4Rtdb88epYxCSRQuZDRW8UtTfdTEVpdTl8s4T56e07hOBVd4G0OdCxIY2A==",
      "path": "xunit.extensibility.execution/2.4.1",
      "hashPath": "xunit.extensibility.execution.2.4.1.nupkg.sha512"
    },
    "xunit.runner.visualstudio/2.4.1": {
      "type": "package",
      "serviceable": true,
      "sha512": "sha512-mBXd1lp1TQr4to2nFv+c4Tf+RnPoQPKglzwLdbdirOUxRaJsCUNDUx2y7E6j9ajgISlTTp1CydFBZCRCUIrwDg==",
      "path": "xunit.runner.visualstudio/2.4.1",
      "hashPath": "xunit.runner.visualstudio.2.4.1.nupkg.sha512"
    },
    "Microsoft.Coyote/1.0.5": {
      "type": "project",
      "serviceable": false,
      "sha512": ""
    },
    "Microsoft.Coyote.Tests.Common/1.0.5": {
      "type": "project",
      "serviceable": false,
      "sha512": ""
    }
  }
}